#r[cm](2cm müssen abgezogen werden)      amplitude       gain (ab~45cm stark am wackeln; ab 70cm messwerte der anderen gruppe)
12 4 2
15 5.1 5
18 5.6 10
21 7.3 20
24 6.1 20
27 4.1 20
30 8 50
33 6.4 50
36 5.2 50
39 8.7 100
42 7.3 100
45 6.0 100
48 5.3 100
51 9 200
54 8 200
57 7 200
60 6.5 200
63 6 200
66 5.5 200
69 2.25 100
70 3 100
75 2.5 100
80 2 100
85 1.9 100
90 1.5 100
95 1 100
100 0.75 100
105 0.75 100
110 0.75 100
115 0.75 100
