Record Length,2.500000e+03,,   0.000168000000,   0.42000,
Sample Interval,1.000000e-07,,   0.000168100000,   0.42000,
Trigger Point,-1.680000000000e+03,,   0.000168200000,   0.44000,
,,,   0.000168300000,   0.42000,
,,,   0.000168400000,   0.38000,
,,,   0.000168500000,   0.42000,
Source,CH1,,   0.000168600000,   0.40000,
Vertical Units,V,,   0.000168700000,   0.40000,
Vertical Scale,5.000000e-01,,   0.000168800000,   0.42000,
Vertical Offset,6.000000e-02,,   0.000168900000,   0.44000,
Horizontal Units,s,,   0.000169000000,   0.40000,
Horizontal Scale,2.500000e-05,,   0.000169100000,   0.40000,
Pt Fmt,Y,,   0.000169200000,   0.40000,
Yzero,0.000000e+00,,   0.000169300000,   0.38000,
Probe Atten,1.000000e+01,,   0.000169400000,   0.40000,
Model Number,TDS1001B,,   0.000169500000,   0.36000,
Serial Number,C059819,,   0.000169600000,   0.40000,
Firmware Version,FV:v22.01,,   0.000169700000,   0.38000,
,,,0.000169800000,   0.42000,
,,,0.000169900000,   0.38000,
,,,0.000170000000,   0.38000,
,,,0.000170100000,   0.32000,
,,,0.000170200000,   0.36000,
,,,0.000170300000,   0.38000,
,,,0.000170400000,   0.36000,
,,,0.000170500000,   0.36000,
,,,0.000170600000,   0.38000,
,,,0.000170700000,   0.34000,
,,,0.000170800000,   0.34000,
,,,0.000170900000,   0.36000,
,,,0.000171000000,   0.34000,
,,,0.000171100000,   0.32000,
,,,0.000171200000,   0.32000,
,,,0.000171300000,   0.30000,
,,,0.000171400000,   0.28000,
,,,0.000171500000,   0.30000,
,,,0.000171600000,   0.30000,
,,,0.000171700000,   0.28000,
,,,0.000171800000,   0.26000,
,,,0.000171900000,   0.30000,
,,,0.000172000000,   0.28000,
,,,0.000172100000,   0.26000,
,,,0.000172200000,   0.26000,
,,,0.000172300000,   0.26000,
,,,0.000172400000,   0.26000,
,,,0.000172500000,   0.24000,
,,,0.000172600000,   0.24000,
,,,0.000172700000,   0.20000,
,,,0.000172800000,   0.24000,
,,,0.000172900000,   0.20000,
,,,0.000173000000,   0.20000,
,,,0.000173100000,   0.22000,
,,,0.000173200000,   0.20000,
,,,0.000173300000,   0.18000,
,,,0.000173400000,   0.16000,
,,,0.000173500000,   0.18000,
,,,0.000173600000,   0.18000,
,,,0.000173700000,   0.14000,
,,,0.000173800000,   0.14000,
,,,0.000173900000,   0.14000,
,,,0.000174000000,   0.12000,
,,,0.000174100000,   0.12000,
,,,0.000174200000,   0.12000,
,,,0.000174300000,   0.12000,
,,,0.000174400000,   0.10000,
,,,0.000174500000,   0.10000,
,,,0.000174600000,   0.12000,
,,,0.000174700000,   0.10000,
,,,0.000174800000,   0.10000,
,,,0.000174900000,   0.10000,
,,,0.000175000000,   0.08000,
,,,0.000175100000,   0.06000,
,,,0.000175200000,   0.04000,
,,,0.000175300000,   0.06000,
,,,0.000175400000,   0.04000,
,,,0.000175500000,   0.04000,
,,,0.000175600000,   0.02000,
,,,0.000175700000,   0.00000,
,,,0.000175800000,   0.04000,
,,,0.000175900000,   0.00000,
,,,0.000176000000,   0.00000,
,,,0.000176100000,  -0.04000,
,,,0.000176200000,   0.00000,
,,,0.000176300000,   0.00000,
,,,0.000176400000,  -0.02000,
,,,0.000176500000,  -0.02000,
,,,0.000176600000,  -0.04000,
,,,0.000176700000,  -0.06000,
,,,0.000176800000,  -0.02000,
,,,0.000176900000,  -0.04000,
,,,0.000177000000,  -0.06000,
,,,0.000177100000,  -0.06000,
,,,0.000177200000,  -0.04000,
,,,0.000177300000,  -0.06000,
,,,0.000177400000,  -0.08000,
,,,0.000177500000,  -0.08000,
,,,0.000177600000,  -0.12000,
,,,0.000177700000,  -0.08000,
,,,0.000177800000,  -0.12000,
,,,0.000177900000,  -0.12000,
,,,0.000178000000,  -0.10000,
,,,0.000178100000,  -0.12000,
,,,0.000178200000,  -0.08000,
,,,0.000178300000,  -0.12000,
,,,0.000178400000,  -0.12000,
,,,0.000178500000,  -0.12000,
,,,0.000178600000,  -0.12000,
,,,0.000178700000,  -0.14000,
,,,0.000178800000,  -0.10000,
,,,0.000178900000,  -0.14000,
,,,0.000179000000,  -0.14000,
,,,0.000179100000,  -0.14000,
,,,0.000179200000,  -0.12000,
,,,0.000179300000,  -0.14000,
,,,0.000179400000,  -0.12000,
,,,0.000179500000,  -0.14000,
,,,0.000179600000,  -0.14000,
,,,0.000179700000,  -0.16000,
,,,0.000179800000,  -0.14000,
,,,0.000179900000,  -0.16000,
,,,0.000180000000,  -0.18000,
,,,0.000180100000,  -0.16000,
,,,0.000180200000,  -0.14000,
,,,0.000180300000,  -0.16000,
,,,0.000180400000,  -0.16000,
,,,0.000180500000,  -0.16000,
,,,0.000180600000,  -0.16000,
,,,0.000180700000,  -0.18000,
,,,0.000180800000,  -0.14000,
,,,0.000180900000,  -0.16000,
,,,0.000181000000,  -0.16000,
,,,0.000181100000,  -0.18000,
,,,0.000181200000,  -0.18000,
,,,0.000181300000,  -0.16000,
,,,0.000181400000,  -0.14000,
,,,0.000181500000,  -0.16000,
,,,0.000181600000,  -0.14000,
,,,0.000181700000,  -0.18000,
,,,0.000181800000,  -0.14000,
,,,0.000181900000,  -0.14000,
,,,0.000182000000,  -0.16000,
,,,0.000182100000,  -0.14000,
,,,0.000182200000,  -0.14000,
,,,0.000182300000,  -0.14000,
,,,0.000182400000,  -0.16000,
,,,0.000182500000,  -0.14000,
,,,0.000182600000,  -0.14000,
,,,0.000182700000,  -0.16000,
,,,0.000182800000,  -0.14000,
,,,0.000182900000,  -0.12000,
,,,0.000183000000,  -0.14000,
,,,0.000183100000,  -0.14000,
,,,0.000183200000,  -0.12000,
,,,0.000183300000,  -0.14000,
,,,0.000183400000,  -0.14000,
,,,0.000183500000,  -0.12000,
,,,0.000183600000,  -0.14000,
,,,0.000183700000,  -0.16000,
,,,0.000183800000,  -0.14000,
,,,0.000183900000,  -0.12000,
,,,0.000184000000,  -0.14000,
,,,0.000184100000,  -0.12000,
,,,0.000184200000,  -0.10000,
,,,0.000184300000,  -0.12000,
,,,0.000184400000,  -0.12000,
,,,0.000184500000,  -0.10000,
,,,0.000184600000,  -0.12000,
,,,0.000184700000,  -0.12000,
,,,0.000184800000,  -0.12000,
,,,0.000184900000,  -0.12000,
,,,0.000185000000,  -0.12000,
,,,0.000185100000,  -0.10000,
,,,0.000185200000,  -0.10000,
,,,0.000185300000,  -0.12000,
,,,0.000185400000,  -0.12000,
,,,0.000185500000,  -0.08000,
,,,0.000185600000,  -0.08000,
,,,0.000185700000,  -0.08000,
,,,0.000185800000,  -0.10000,
,,,0.000185900000,  -0.08000,
,,,0.000186000000,  -0.08000,
,,,0.000186100000,  -0.10000,
,,,0.000186200000,  -0.06000,
,,,0.000186300000,  -0.08000,
,,,0.000186400000,  -0.08000,
,,,0.000186500000,  -0.12000,
,,,0.000186600000,  -0.12000,
,,,0.000186700000,  -0.10000,
,,,0.000186800000,  -0.06000,
,,,0.000186900000,  -0.10000,
,,,0.000187000000,  -0.08000,
,,,0.000187100000,  -0.08000,
,,,0.000187200000,  -0.08000,
,,,0.000187300000,  -0.08000,
,,,0.000187400000,  -0.06000,
,,,0.000187500000,  -0.08000,
,,,0.000187600000,  -0.10000,
,,,0.000187700000,  -0.08000,
,,,0.000187800000,  -0.08000,
,,,0.000187900000,  -0.06000,
,,,0.000188000000,  -0.06000,
,,,0.000188100000,  -0.08000,
,,,0.000188200000,  -0.06000,
,,,0.000188300000,  -0.08000,
,,,0.000188400000,  -0.06000,
,,,0.000188500000,  -0.08000,
,,,0.000188600000,  -0.04000,
,,,0.000188700000,  -0.04000,
,,,0.000188800000,  -0.06000,
,,,0.000188900000,  -0.06000,
,,,0.000189000000,  -0.10000,
,,,0.000189100000,  -0.04000,
,,,0.000189200000,  -0.06000,
,,,0.000189300000,  -0.06000,
,,,0.000189400000,  -0.06000,
,,,0.000189500000,  -0.08000,
,,,0.000189600000,  -0.08000,
,,,0.000189700000,  -0.10000,
,,,0.000189800000,  -0.06000,
,,,0.000189900000,  -0.08000,
,,,0.000190000000,  -0.08000,
,,,0.000190100000,  -0.08000,
,,,0.000190200000,  -0.06000,
,,,0.000190300000,  -0.08000,
,,,0.000190400000,  -0.08000,
,,,0.000190500000,  -0.04000,
,,,0.000190600000,  -0.06000,
,,,0.000190700000,  -0.06000,
,,,0.000190800000,  -0.04000,
,,,0.000190900000,  -0.06000,
,,,0.000191000000,  -0.08000,
,,,0.000191100000,  -0.06000,
,,,0.000191200000,  -0.10000,
,,,0.000191300000,  -0.10000,
,,,0.000191400000,  -0.06000,
,,,0.000191500000,  -0.06000,
,,,0.000191600000,  -0.08000,
,,,0.000191700000,  -0.10000,
,,,0.000191800000,  -0.06000,
,,,0.000191900000,  -0.08000,
,,,0.000192000000,  -0.10000,
,,,0.000192100000,  -0.06000,
,,,0.000192200000,  -0.06000,
,,,0.000192300000,  -0.12000,
,,,0.000192400000,  -0.10000,
,,,0.000192500000,  -0.06000,
,,,0.000192600000,  -0.06000,
,,,0.000192700000,  -0.08000,
,,,0.000192800000,  -0.06000,
,,,0.000192900000,  -0.06000,
,,,0.000193000000,  -0.10000,
,,,0.000193100000,  -0.10000,
,,,0.000193200000,  -0.08000,
,,,0.000193300000,  -0.08000,
,,,0.000193400000,  -0.08000,
,,,0.000193500000,  -0.08000,
,,,0.000193600000,  -0.10000,
,,,0.000193700000,  -0.12000,
,,,0.000193800000,  -0.06000,
,,,0.000193900000,  -0.08000,
,,,0.000194000000,  -0.10000,
,,,0.000194100000,  -0.10000,
,,,0.000194200000,  -0.08000,
,,,0.000194300000,  -0.10000,
,,,0.000194400000,  -0.08000,
,,,0.000194500000,  -0.06000,
,,,0.000194600000,  -0.06000,
,,,0.000194700000,  -0.06000,
,,,0.000194800000,  -0.08000,
,,,0.000194900000,  -0.08000,
,,,0.000195000000,  -0.08000,
,,,0.000195100000,  -0.06000,
,,,0.000195200000,  -0.06000,
,,,0.000195300000,  -0.08000,
,,,0.000195400000,  -0.06000,
,,,0.000195500000,  -0.04000,
,,,0.000195600000,  -0.06000,
,,,0.000195700000,  -0.08000,
,,,0.000195800000,  -0.02000,
,,,0.000195900000,  -0.04000,
,,,0.000196000000,  -0.06000,
,,,0.000196100000,  -0.08000,
,,,0.000196200000,  -0.04000,
,,,0.000196300000,  -0.04000,
,,,0.000196400000,  -0.08000,
,,,0.000196500000,  -0.06000,
,,,0.000196600000,  -0.06000,
,,,0.000196700000,  -0.04000,
,,,0.000196800000,  -0.02000,
,,,0.000196900000,  -0.06000,
,,,0.000197000000,  -0.04000,
,,,0.000197100000,  -0.04000,
,,,0.000197200000,  -0.04000,
,,,0.000197300000,  -0.06000,
,,,0.000197400000,  -0.04000,
,,,0.000197500000,  -0.02000,
,,,0.000197600000,  -0.06000,
,,,0.000197700000,  -0.02000,
,,,0.000197800000,   0.00000,
,,,0.000197900000,  -0.02000,
,,,0.000198000000,   0.00000,
,,,0.000198100000,   0.00000,
,,,0.000198200000,  -0.02000,
,,,0.000198300000,  -0.02000,
,,,0.000198400000,  -0.02000,
,,,0.000198500000,   0.00000,
,,,0.000198600000,   0.04000,
,,,0.000198700000,   0.02000,
,,,0.000198800000,   0.04000,
,,,0.000198900000,   0.02000,
,,,0.000199000000,   0.00000,
,,,0.000199100000,   0.02000,
,,,0.000199200000,   0.04000,
,,,0.000199300000,   0.04000,
,,,0.000199400000,   0.02000,
,,,0.000199500000,   0.06000,
,,,0.000199600000,   0.02000,
,,,0.000199700000,   0.02000,
,,,0.000199800000,   0.06000,
,,,0.000199900000,   0.08000,
,,,0.000200000000,   0.06000,
,,,0.000200100000,   0.08000,
,,,0.000200200000,   0.10000,
,,,0.000200300000,   0.06000,
,,,0.000200400000,   0.10000,
,,,0.000200500000,   0.10000,
,,,0.000200600000,   0.10000,
,,,0.000200700000,   0.08000,
,,,0.000200800000,   0.12000,
,,,0.000200900000,   0.12000,
,,,0.000201000000,   0.10000,
,,,0.000201100000,   0.10000,
,,,0.000201200000,   0.14000,
,,,0.000201300000,   0.12000,
,,,0.000201400000,   0.12000,
,,,0.000201500000,   0.12000,
,,,0.000201600000,   0.14000,
,,,0.000201700000,   0.16000,
,,,0.000201800000,   0.18000,
,,,0.000201900000,   0.16000,
,,,0.000202000000,   0.18000,
,,,0.000202100000,   0.20000,
,,,0.000202200000,   0.18000,
,,,0.000202300000,   0.18000,
,,,0.000202400000,   0.20000,
,,,0.000202500000,   0.20000,
,,,0.000202600000,   0.20000,
,,,0.000202700000,   0.20000,
,,,0.000202800000,   0.22000,
,,,0.000202900000,   0.20000,
,,,0.000203000000,   0.20000,
,,,0.000203100000,   0.22000,
,,,0.000203200000,   0.24000,
,,,0.000203300000,   0.24000,
,,,0.000203400000,   0.22000,
,,,0.000203500000,   0.22000,
,,,0.000203600000,   0.22000,
,,,0.000203700000,   0.22000,
,,,0.000203800000,   0.24000,
,,,0.000203900000,   0.26000,
,,,0.000204000000,   0.26000,
,,,0.000204100000,   0.26000,
,,,0.000204200000,   0.30000,
,,,0.000204300000,   0.26000,
,,,0.000204400000,   0.28000,
,,,0.000204500000,   0.28000,
,,,0.000204600000,   0.26000,
,,,0.000204700000,   0.28000,
,,,0.000204800000,   0.28000,
,,,0.000204900000,   0.28000,
,,,0.000205000000,   0.30000,
,,,0.000205100000,   0.32000,
,,,0.000205200000,   0.30000,
,,,0.000205300000,   0.30000,
,,,0.000205400000,   0.32000,
,,,0.000205500000,   0.32000,
,,,0.000205600000,   0.28000,
,,,0.000205700000,   0.34000,
,,,0.000205800000,   0.32000,
,,,0.000205900000,   0.30000,
,,,0.000206000000,   0.30000,
,,,0.000206100000,   0.32000,
,,,0.000206200000,   0.32000,
,,,0.000206300000,   0.30000,
,,,0.000206400000,   0.30000,
,,,0.000206500000,   0.34000,
,,,0.000206600000,   0.32000,
,,,0.000206700000,   0.32000,
,,,0.000206800000,   0.32000,
,,,0.000206900000,   0.34000,
,,,0.000207000000,   0.34000,
,,,0.000207100000,   0.34000,
,,,0.000207200000,   0.34000,
,,,0.000207300000,   0.30000,
,,,0.000207400000,   0.32000,
,,,0.000207500000,   0.32000,
,,,0.000207600000,   0.30000,
,,,0.000207700000,   0.32000,
,,,0.000207800000,   0.34000,
,,,0.000207900000,   0.28000,
,,,0.000208000000,   0.30000,
,,,0.000208100000,   0.28000,
,,,0.000208200000,   0.32000,
,,,0.000208300000,   0.30000,
,,,0.000208400000,   0.30000,
,,,0.000208500000,   0.32000,
,,,0.000208600000,   0.28000,
,,,0.000208700000,   0.30000,
,,,0.000208800000,   0.28000,
,,,0.000208900000,   0.28000,
,,,0.000209000000,   0.24000,
,,,0.000209100000,   0.28000,
,,,0.000209200000,   0.26000,
,,,0.000209300000,   0.26000,
,,,0.000209400000,   0.26000,
,,,0.000209500000,   0.24000,
,,,0.000209600000,   0.22000,
,,,0.000209700000,   0.22000,
,,,0.000209800000,   0.24000,
,,,0.000209900000,   0.22000,
,,,0.000210000000,   0.22000,
,,,0.000210100000,   0.22000,
,,,0.000210200000,   0.20000,
,,,0.000210300000,   0.22000,
,,,0.000210400000,   0.20000,
,,,0.000210500000,   0.20000,
,,,0.000210600000,   0.16000,
,,,0.000210700000,   0.16000,
,,,0.000210800000,   0.16000,
,,,0.000210900000,   0.16000,
,,,0.000211000000,   0.14000,
,,,0.000211100000,   0.14000,
,,,0.000211200000,   0.12000,
,,,0.000211300000,   0.10000,
,,,0.000211400000,   0.12000,
,,,0.000211500000,   0.10000,
,,,0.000211600000,   0.10000,
,,,0.000211700000,   0.12000,
,,,0.000211800000,   0.08000,
,,,0.000211900000,   0.08000,
,,,0.000212000000,   0.08000,
,,,0.000212100000,   0.06000,
,,,0.000212200000,   0.04000,
,,,0.000212300000,   0.02000,
,,,0.000212400000,   0.02000,
,,,0.000212500000,   0.00000,
,,,0.000212600000,   0.00000,
,,,0.000212700000,   0.00000,
,,,0.000212800000,  -0.02000,
,,,0.000212900000,  -0.04000,
,,,0.000213000000,  -0.08000,
,,,0.000213100000,  -0.06000,
,,,0.000213200000,  -0.04000,
,,,0.000213300000,  -0.10000,
,,,0.000213400000,  -0.08000,
,,,0.000213500000,  -0.10000,
,,,0.000213600000,  -0.12000,
,,,0.000213700000,  -0.12000,
,,,0.000213800000,  -0.12000,
,,,0.000213900000,  -0.14000,
,,,0.000214000000,  -0.14000,
,,,0.000214100000,  -0.12000,
,,,0.000214200000,  -0.14000,
,,,0.000214300000,  -0.18000,
,,,0.000214400000,  -0.16000,
,,,0.000214500000,  -0.18000,
,,,0.000214600000,  -0.20000,
,,,0.000214700000,  -0.24000,
,,,0.000214800000,  -0.18000,
,,,0.000214900000,  -0.22000,
,,,0.000215000000,  -0.24000,
,,,0.000215100000,  -0.24000,
,,,0.000215200000,  -0.26000,
,,,0.000215300000,  -0.26000,
,,,0.000215400000,  -0.28000,
,,,0.000215500000,  -0.30000,
,,,0.000215600000,  -0.30000,
,,,0.000215700000,  -0.32000,
,,,0.000215800000,  -0.36000,
,,,0.000215900000,  -0.32000,
,,,0.000216000000,  -0.34000,
,,,0.000216100000,  -0.34000,
,,,0.000216200000,  -0.36000,
,,,0.000216300000,  -0.38000,
,,,0.000216400000,  -0.38000,
,,,0.000216500000,  -0.36000,
,,,0.000216600000,  -0.36000,
,,,0.000216700000,  -0.40000,
,,,0.000216800000,  -0.38000,
,,,0.000216900000,  -0.40000,
,,,0.000217000000,  -0.42000,
,,,0.000217100000,  -0.42000,
,,,0.000217200000,  -0.46000,
,,,0.000217300000,  -0.46000,
,,,0.000217400000,  -0.46000,
,,,0.000217500000,  -0.46000,
,,,0.000217600000,  -0.44000,
,,,0.000217700000,  -0.44000,
,,,0.000217800000,  -0.46000,
,,,0.000217900000,  -0.44000,
,,,0.000218000000,  -0.46000,
,,,0.000218100000,  -0.50000,
,,,0.000218200000,  -0.46000,
,,,0.000218300000,  -0.46000,
,,,0.000218400000,  -0.48000,
,,,0.000218500000,  -0.50000,
,,,0.000218600000,  -0.52000,
,,,0.000218700000,  -0.50000,
,,,0.000218800000,  -0.50000,
,,,0.000218900000,  -0.52000,
,,,0.000219000000,  -0.52000,
,,,0.000219100000,  -0.50000,
,,,0.000219200000,  -0.52000,
,,,0.000219300000,  -0.50000,
,,,0.000219400000,  -0.52000,
,,,0.000219500000,  -0.52000,
,,,0.000219600000,  -0.54000,
,,,0.000219700000,  -0.54000,
,,,0.000219800000,  -0.52000,
,,,0.000219900000,  -0.52000,
,,,0.000220000000,  -0.52000,
,,,0.000220100000,  -0.52000,
,,,0.000220200000,  -0.52000,
,,,0.000220300000,  -0.54000,
,,,0.000220400000,  -0.52000,
,,,0.000220500000,  -0.52000,
,,,0.000220600000,  -0.52000,
,,,0.000220700000,  -0.50000,
,,,0.000220800000,  -0.50000,
,,,0.000220900000,  -0.50000,
,,,0.000221000000,  -0.52000,
,,,0.000221100000,  -0.48000,
,,,0.000221200000,  -0.52000,
,,,0.000221300000,  -0.50000,
,,,0.000221400000,  -0.48000,
,,,0.000221500000,  -0.48000,
,,,0.000221600000,  -0.46000,
,,,0.000221700000,  -0.46000,
,,,0.000221800000,  -0.42000,
,,,0.000221900000,  -0.46000,
,,,0.000222000000,  -0.44000,
,,,0.000222100000,  -0.40000,
,,,0.000222200000,  -0.42000,
,,,0.000222300000,  -0.44000,
,,,0.000222400000,  -0.40000,
,,,0.000222500000,  -0.40000,
,,,0.000222600000,  -0.38000,
,,,0.000222700000,  -0.40000,
,,,0.000222800000,  -0.38000,
,,,0.000222900000,  -0.38000,
,,,0.000223000000,  -0.36000,
,,,0.000223100000,  -0.34000,
,,,0.000223200000,  -0.36000,
,,,0.000223300000,  -0.34000,
,,,0.000223400000,  -0.32000,
,,,0.000223500000,  -0.32000,
,,,0.000223600000,  -0.30000,
,,,0.000223700000,  -0.26000,
,,,0.000223800000,  -0.26000,
,,,0.000223900000,  -0.28000,
,,,0.000224000000,  -0.22000,
,,,0.000224100000,  -0.20000,
,,,0.000224200000,  -0.22000,
,,,0.000224300000,  -0.20000,
,,,0.000224400000,  -0.20000,
,,,0.000224500000,  -0.20000,
,,,0.000224600000,  -0.18000,
,,,0.000224700000,  -0.14000,
,,,0.000224800000,  -0.14000,
,,,0.000224900000,  -0.14000,
,,,0.000225000000,  -0.12000,
,,,0.000225100000,  -0.10000,
,,,0.000225200000,  -0.08000,
,,,0.000225300000,  -0.10000,
,,,0.000225400000,  -0.04000,
,,,0.000225500000,  -0.06000,
,,,0.000225600000,  -0.02000,
,,,0.000225700000,   0.00000,
,,,0.000225800000,  -0.02000,
,,,0.000225900000,   0.00000,
,,,0.000226000000,   0.04000,
,,,0.000226100000,   0.04000,
,,,0.000226200000,   0.02000,
,,,0.000226300000,   0.06000,
,,,0.000226400000,   0.10000,
,,,0.000226500000,   0.12000,
,,,0.000226600000,   0.10000,
,,,0.000226700000,   0.14000,
,,,0.000226800000,   0.16000,
,,,0.000226900000,   0.16000,
,,,0.000227000000,   0.18000,
,,,0.000227100000,   0.18000,
,,,0.000227200000,   0.22000,
,,,0.000227300000,   0.22000,
,,,0.000227400000,   0.26000,
,,,0.000227500000,   0.24000,
,,,0.000227600000,   0.30000,
,,,0.000227700000,   0.28000,
,,,0.000227800000,   0.30000,
,,,0.000227900000,   0.28000,
,,,0.000228000000,   0.32000,
,,,0.000228100000,   0.36000,
,,,0.000228200000,   0.34000,
,,,0.000228300000,   0.38000,
,,,0.000228400000,   0.38000,
,,,0.000228500000,   0.40000,
,,,0.000228600000,   0.38000,
,,,0.000228700000,   0.44000,
,,,0.000228800000,   0.44000,
,,,0.000228900000,   0.46000,
,,,0.000229000000,   0.46000,
,,,0.000229100000,   0.48000,
,,,0.000229200000,   0.50000,
,,,0.000229300000,   0.46000,
,,,0.000229400000,   0.52000,
,,,0.000229500000,   0.48000,
,,,0.000229600000,   0.54000,
,,,0.000229700000,   0.54000,
,,,0.000229800000,   0.54000,
,,,0.000229900000,   0.54000,
,,,0.000230000000,   0.58000,
,,,0.000230100000,   0.60000,
,,,0.000230200000,   0.58000,
,,,0.000230300000,   0.60000,
,,,0.000230400000,   0.60000,
,,,0.000230500000,   0.60000,
,,,0.000230600000,   0.60000,
,,,0.000230700000,   0.62000,
,,,0.000230800000,   0.64000,
,,,0.000230900000,   0.66000,
,,,0.000231000000,   0.66000,
,,,0.000231100000,   0.66000,
,,,0.000231200000,   0.66000,
,,,0.000231300000,   0.70000,
,,,0.000231400000,   0.68000,
,,,0.000231500000,   0.68000,
,,,0.000231600000,   0.68000,
,,,0.000231700000,   0.72000,
,,,0.000231800000,   0.70000,
,,,0.000231900000,   0.68000,
,,,0.000232000000,   0.68000,
,,,0.000232100000,   0.70000,
,,,0.000232200000,   0.72000,
,,,0.000232300000,   0.70000,
,,,0.000232400000,   0.72000,
,,,0.000232500000,   0.68000,
,,,0.000232600000,   0.70000,
,,,0.000232700000,   0.72000,
,,,0.000232800000,   0.72000,
,,,0.000232900000,   0.70000,
,,,0.000233000000,   0.72000,
,,,0.000233100000,   0.70000,
,,,0.000233200000,   0.70000,
,,,0.000233300000,   0.70000,
,,,0.000233400000,   0.70000,
,,,0.000233500000,   0.68000,
,,,0.000233600000,   0.68000,
,,,0.000233700000,   0.68000,
,,,0.000233800000,   0.68000,
,,,0.000233900000,   0.68000,
,,,0.000234000000,   0.68000,
,,,0.000234100000,   0.64000,
,,,0.000234200000,   0.68000,
,,,0.000234300000,   0.66000,
,,,0.000234400000,   0.66000,
,,,0.000234500000,   0.62000,
,,,0.000234600000,   0.62000,
,,,0.000234700000,   0.62000,
,,,0.000234800000,   0.62000,
,,,0.000234900000,   0.58000,
,,,0.000235000000,   0.60000,
,,,0.000235100000,   0.60000,
,,,0.000235200000,   0.54000,
,,,0.000235300000,   0.56000,
,,,0.000235400000,   0.56000,
,,,0.000235500000,   0.52000,
,,,0.000235600000,   0.52000,
,,,0.000235700000,   0.56000,
,,,0.000235800000,   0.50000,
,,,0.000235900000,   0.48000,
,,,0.000236000000,   0.50000,
,,,0.000236100000,   0.46000,
,,,0.000236200000,   0.44000,
,,,0.000236300000,   0.42000,
,,,0.000236400000,   0.44000,
,,,0.000236500000,   0.40000,
,,,0.000236600000,   0.40000,
,,,0.000236700000,   0.38000,
,,,0.000236800000,   0.36000,
,,,0.000236900000,   0.34000,
,,,0.000237000000,   0.32000,
,,,0.000237100000,   0.30000,
,,,0.000237200000,   0.28000,
,,,0.000237300000,   0.30000,
,,,0.000237400000,   0.28000,
,,,0.000237500000,   0.24000,
,,,0.000237600000,   0.22000,
,,,0.000237700000,   0.20000,
,,,0.000237800000,   0.18000,
,,,0.000237900000,   0.14000,
,,,0.000238000000,   0.18000,
,,,0.000238100000,   0.14000,
,,,0.000238200000,   0.16000,
,,,0.000238300000,   0.10000,
,,,0.000238400000,   0.12000,
,,,0.000238500000,   0.06000,
,,,0.000238600000,   0.04000,
,,,0.000238700000,   0.02000,
,,,0.000238800000,   0.00000,
,,,0.000238900000,   0.00000,
,,,0.000239000000,  -0.02000,
,,,0.000239100000,  -0.04000,
,,,0.000239200000,  -0.08000,
,,,0.000239300000,  -0.08000,
,,,0.000239400000,  -0.10000,
,,,0.000239500000,  -0.12000,
,,,0.000239600000,  -0.16000,
,,,0.000239700000,  -0.16000,
,,,0.000239800000,  -0.16000,
,,,0.000239900000,  -0.18000,
,,,0.000240000000,  -0.22000,
,,,0.000240100000,  -0.24000,
,,,0.000240200000,  -0.24000,
,,,0.000240300000,  -0.26000,
,,,0.000240400000,  -0.26000,
,,,0.000240500000,  -0.32000,
,,,0.000240600000,  -0.34000,
,,,0.000240700000,  -0.34000,
,,,0.000240800000,  -0.36000,
,,,0.000240900000,  -0.38000,
,,,0.000241000000,  -0.40000,
,,,0.000241100000,  -0.42000,
,,,0.000241200000,  -0.44000,
,,,0.000241300000,  -0.42000,
,,,0.000241400000,  -0.46000,
,,,0.000241500000,  -0.48000,
,,,0.000241600000,  -0.50000,
,,,0.000241700000,  -0.48000,
,,,0.000241800000,  -0.52000,
,,,0.000241900000,  -0.54000,
,,,0.000242000000,  -0.54000,
,,,0.000242100000,  -0.58000,
,,,0.000242200000,  -0.62000,
,,,0.000242300000,  -0.62000,
,,,0.000242400000,  -0.60000,
,,,0.000242500000,  -0.66000,
,,,0.000242600000,  -0.66000,
,,,0.000242700000,  -0.66000,
,,,0.000242800000,  -0.64000,
,,,0.000242900000,  -0.68000,
,,,0.000243000000,  -0.68000,
,,,0.000243100000,  -0.74000,
,,,0.000243200000,  -0.74000,
,,,0.000243300000,  -0.74000,
,,,0.000243400000,  -0.74000,
,,,0.000243500000,  -0.76000,
,,,0.000243600000,  -0.74000,
,,,0.000243700000,  -0.72000,
,,,0.000243800000,  -0.78000,
,,,0.000243900000,  -0.76000,
,,,0.000244000000,  -0.76000,
,,,0.000244100000,  -0.78000,
,,,0.000244200000,  -0.80000,
,,,0.000244300000,  -0.80000,
,,,0.000244400000,  -0.80000,
,,,0.000244500000,  -0.82000,
,,,0.000244600000,  -0.80000,
,,,0.000244700000,  -0.82000,
,,,0.000244800000,  -0.82000,
,,,0.000244900000,  -0.84000,
,,,0.000245000000,  -0.84000,
,,,0.000245100000,  -0.82000,
,,,0.000245200000,  -0.84000,
,,,0.000245300000,  -0.86000,
,,,0.000245400000,  -0.88000,
,,,0.000245500000,  -0.86000,
,,,0.000245600000,  -0.86000,
,,,0.000245700000,  -0.82000,
,,,0.000245800000,  -0.84000,
,,,0.000245900000,  -0.84000,
,,,0.000246000000,  -0.82000,
,,,0.000246100000,  -0.82000,
,,,0.000246200000,  -0.82000,
,,,0.000246300000,  -0.80000,
,,,0.000246400000,  -0.82000,
,,,0.000246500000,  -0.82000,
,,,0.000246600000,  -0.82000,
,,,0.000246700000,  -0.82000,
,,,0.000246800000,  -0.80000,
,,,0.000246900000,  -0.82000,
,,,0.000247000000,  -0.78000,
,,,0.000247100000,  -0.78000,
,,,0.000247200000,  -0.80000,
,,,0.000247300000,  -0.78000,
,,,0.000247400000,  -0.76000,
,,,0.000247500000,  -0.74000,
,,,0.000247600000,  -0.74000,
,,,0.000247700000,  -0.72000,
,,,0.000247800000,  -0.72000,
,,,0.000247900000,  -0.72000,
,,,0.000248000000,  -0.68000,
,,,0.000248100000,  -0.66000,
,,,0.000248200000,  -0.66000,
,,,0.000248300000,  -0.64000,
,,,0.000248400000,  -0.64000,
,,,0.000248500000,  -0.64000,
,,,0.000248600000,  -0.62000,
,,,0.000248700000,  -0.60000,
,,,0.000248800000,  -0.56000,
,,,0.000248900000,  -0.58000,
,,,0.000249000000,  -0.54000,
,,,0.000249100000,  -0.56000,
,,,0.000249200000,  -0.52000,
,,,0.000249300000,  -0.52000,
,,,0.000249400000,  -0.48000,
,,,0.000249500000,  -0.46000,
,,,0.000249600000,  -0.46000,
,,,0.000249700000,  -0.42000,
,,,0.000249800000,  -0.40000,
,,,0.000249900000,  -0.42000,
,,,0.000250000000,  -0.38000,
,,,0.000250100000,  -0.34000,
,,,0.000250200000,  -0.36000,
,,,0.000250300000,  -0.30000,
,,,0.000250400000,  -0.32000,
,,,0.000250500000,  -0.30000,
,,,0.000250600000,  -0.28000,
,,,0.000250700000,  -0.24000,
,,,0.000250800000,  -0.22000,
,,,0.000250900000,  -0.22000,
,,,0.000251000000,  -0.18000,
,,,0.000251100000,  -0.14000,
,,,0.000251200000,  -0.14000,
,,,0.000251300000,  -0.12000,
,,,0.000251400000,  -0.08000,
,,,0.000251500000,  -0.08000,
,,,0.000251600000,  -0.04000,
,,,0.000251700000,  -0.04000,
,,,0.000251800000,  -0.02000,
,,,0.000251900000,   0.02000,
,,,0.000252000000,   0.04000,
,,,0.000252100000,   0.06000,
,,,0.000252200000,   0.08000,
,,,0.000252300000,   0.12000,
,,,0.000252400000,   0.14000,
,,,0.000252500000,   0.14000,
,,,0.000252600000,   0.18000,
,,,0.000252700000,   0.18000,
,,,0.000252800000,   0.20000,
,,,0.000252900000,   0.22000,
,,,0.000253000000,   0.24000,
,,,0.000253100000,   0.28000,
,,,0.000253200000,   0.32000,
,,,0.000253300000,   0.30000,
,,,0.000253400000,   0.34000,
,,,0.000253500000,   0.36000,
,,,0.000253600000,   0.38000,
,,,0.000253700000,   0.40000,
,,,0.000253800000,   0.42000,
,,,0.000253900000,   0.44000,
,,,0.000254000000,   0.48000,
,,,0.000254100000,   0.48000,
,,,0.000254200000,   0.50000,
,,,0.000254300000,   0.50000,
,,,0.000254400000,   0.52000,
,,,0.000254500000,   0.54000,
,,,0.000254600000,   0.60000,
,,,0.000254700000,   0.60000,
,,,0.000254800000,   0.60000,
,,,0.000254900000,   0.62000,
,,,0.000255000000,   0.64000,
,,,0.000255100000,   0.64000,
,,,0.000255200000,   0.64000,
,,,0.000255300000,   0.68000,
,,,0.000255400000,   0.70000,
,,,0.000255500000,   0.70000,
,,,0.000255600000,   0.76000,
,,,0.000255700000,   0.76000,
,,,0.000255800000,   0.74000,
,,,0.000255900000,   0.72000,
,,,0.000256000000,   0.76000,
,,,0.000256100000,   0.80000,
,,,0.000256200000,   0.78000,
,,,0.000256300000,   0.82000,
,,,0.000256400000,   0.82000,
,,,0.000256500000,   0.82000,
,,,0.000256600000,   0.84000,
,,,0.000256700000,   0.86000,
,,,0.000256800000,   0.86000,
,,,0.000256900000,   0.86000,
,,,0.000257000000,   0.86000,
,,,0.000257100000,   0.86000,
,,,0.000257200000,   0.86000,
,,,0.000257300000,   0.88000,
,,,0.000257400000,   0.90000,
,,,0.000257500000,   0.86000,
,,,0.000257600000,   0.90000,
,,,0.000257700000,   0.90000,
,,,0.000257800000,   0.92000,
,,,0.000257900000,   0.92000,
,,,0.000258000000,   0.94000,
,,,0.000258100000,   0.92000,
,,,0.000258200000,   0.94000,
,,,0.000258300000,   0.94000,
,,,0.000258400000,   0.92000,
,,,0.000258500000,   0.92000,
,,,0.000258600000,   0.94000,
,,,0.000258700000,   0.94000,
,,,0.000258800000,   0.94000,
,,,0.000258900000,   0.92000,
,,,0.000259000000,   0.92000,
,,,0.000259100000,   0.90000,
,,,0.000259200000,   0.88000,
,,,0.000259300000,   0.90000,
,,,0.000259400000,   0.88000,
,,,0.000259500000,   0.86000,
,,,0.000259600000,   0.88000,
,,,0.000259700000,   0.90000,
,,,0.000259800000,   0.88000,
,,,0.000259900000,   0.88000,
,,,0.000260000000,   0.86000,
,,,0.000260100000,   0.84000,
,,,0.000260200000,   0.84000,
,,,0.000260300000,   0.84000,
,,,0.000260400000,   0.84000,
,,,0.000260500000,   0.80000,
,,,0.000260600000,   0.82000,
,,,0.000260700000,   0.80000,
,,,0.000260800000,   0.78000,
,,,0.000260900000,   0.78000,
,,,0.000261000000,   0.74000,
,,,0.000261100000,   0.74000,
,,,0.000261200000,   0.72000,
,,,0.000261300000,   0.70000,
,,,0.000261400000,   0.72000,
,,,0.000261500000,   0.70000,
,,,0.000261600000,   0.64000,
,,,0.000261700000,   0.64000,
,,,0.000261800000,   0.60000,
,,,0.000261900000,   0.62000,
,,,0.000262000000,   0.60000,
,,,0.000262100000,   0.58000,
,,,0.000262200000,   0.58000,
,,,0.000262300000,   0.56000,
,,,0.000262400000,   0.54000,
,,,0.000262500000,   0.50000,
,,,0.000262600000,   0.50000,
,,,0.000262700000,   0.48000,
,,,0.000262800000,   0.44000,
,,,0.000262900000,   0.40000,
,,,0.000263000000,   0.42000,
,,,0.000263100000,   0.36000,
,,,0.000263200000,   0.38000,
,,,0.000263300000,   0.34000,
,,,0.000263400000,   0.32000,
,,,0.000263500000,   0.30000,
,,,0.000263600000,   0.32000,
,,,0.000263700000,   0.28000,
,,,0.000263800000,   0.24000,
,,,0.000263900000,   0.22000,
,,,0.000264000000,   0.20000,
,,,0.000264100000,   0.14000,
,,,0.000264200000,   0.16000,
,,,0.000264300000,   0.12000,
,,,0.000264400000,   0.12000,
,,,0.000264500000,   0.08000,
,,,0.000264600000,   0.08000,
,,,0.000264700000,   0.04000,
,,,0.000264800000,   0.00000,
,,,0.000264900000,   0.00000,
,,,0.000265000000,  -0.04000,
,,,0.000265100000,  -0.06000,
,,,0.000265200000,  -0.08000,
,,,0.000265300000,  -0.08000,
,,,0.000265400000,  -0.12000,
,,,0.000265500000,  -0.18000,
,,,0.000265600000,  -0.18000,
,,,0.000265700000,  -0.20000,
,,,0.000265800000,  -0.22000,
,,,0.000265900000,  -0.26000,
,,,0.000266000000,  -0.28000,
,,,0.000266100000,  -0.28000,
,,,0.000266200000,  -0.32000,
,,,0.000266300000,  -0.32000,
,,,0.000266400000,  -0.36000,
,,,0.000266500000,  -0.40000,
,,,0.000266600000,  -0.42000,
,,,0.000266700000,  -0.42000,
,,,0.000266800000,  -0.44000,
,,,0.000266900000,  -0.46000,
,,,0.000267000000,  -0.50000,
,,,0.000267100000,  -0.50000,
,,,0.000267200000,  -0.52000,
,,,0.000267300000,  -0.52000,
,,,0.000267400000,  -0.56000,
,,,0.000267500000,  -0.62000,
,,,0.000267600000,  -0.58000,
,,,0.000267700000,  -0.60000,
,,,0.000267800000,  -0.64000,
,,,0.000267900000,  -0.62000,
,,,0.000268000000,  -0.68000,
,,,0.000268100000,  -0.68000,
,,,0.000268200000,  -0.72000,
,,,0.000268300000,  -0.70000,
,,,0.000268400000,  -0.74000,
,,,0.000268500000,  -0.74000,
,,,0.000268600000,  -0.74000,
,,,0.000268700000,  -0.80000,
,,,0.000268800000,  -0.80000,
,,,0.000268900000,  -0.80000,
,,,0.000269000000,  -0.82000,
,,,0.000269100000,  -0.84000,
,,,0.000269200000,  -0.84000,
,,,0.000269300000,  -0.86000,
,,,0.000269400000,  -0.86000,
,,,0.000269500000,  -0.90000,
,,,0.000269600000,  -0.88000,
,,,0.000269700000,  -0.90000,
,,,0.000269800000,  -0.92000,
,,,0.000269900000,  -0.90000,
,,,0.000270000000,  -0.92000,
,,,0.000270100000,  -0.92000,
,,,0.000270200000,  -0.94000,
,,,0.000270300000,  -0.96000,
,,,0.000270400000,  -0.94000,
,,,0.000270500000,  -0.92000,
,,,0.000270600000,  -0.94000,
,,,0.000270700000,  -0.96000,
,,,0.000270800000,  -0.98000,
,,,0.000270900000,  -0.96000,
,,,0.000271000000,  -0.96000,
,,,0.000271100000,  -1.00000,
,,,0.000271200000,  -0.98000,
,,,0.000271300000,  -0.98000,
,,,0.000271400000,  -0.96000,
,,,0.000271500000,  -1.00000,
,,,0.000271600000,  -0.96000,
,,,0.000271700000,  -1.00000,
,,,0.000271800000,  -0.96000,
,,,0.000271900000,  -0.98000,
,,,0.000272000000,  -0.96000,
,,,0.000272100000,  -0.96000,
,,,0.000272200000,  -0.96000,
,,,0.000272300000,  -0.94000,
,,,0.000272400000,  -0.94000,
,,,0.000272500000,  -0.94000,
,,,0.000272600000,  -0.94000,
,,,0.000272700000,  -0.92000,
,,,0.000272800000,  -0.94000,
,,,0.000272900000,  -0.94000,
,,,0.000273000000,  -0.88000,
,,,0.000273100000,  -0.90000,
,,,0.000273200000,  -0.86000,
,,,0.000273300000,  -0.86000,
,,,0.000273400000,  -0.84000,
,,,0.000273500000,  -0.84000,
,,,0.000273600000,  -0.80000,
,,,0.000273700000,  -0.82000,
,,,0.000273800000,  -0.82000,
,,,0.000273900000,  -0.80000,
,,,0.000274000000,  -0.76000,
,,,0.000274100000,  -0.78000,
,,,0.000274200000,  -0.74000,
,,,0.000274300000,  -0.72000,
,,,0.000274400000,  -0.70000,
,,,0.000274500000,  -0.70000,
,,,0.000274600000,  -0.66000,
,,,0.000274700000,  -0.68000,
,,,0.000274800000,  -0.64000,
,,,0.000274900000,  -0.66000,
,,,0.000275000000,  -0.62000,
,,,0.000275100000,  -0.60000,
,,,0.000275200000,  -0.58000,
,,,0.000275300000,  -0.54000,
,,,0.000275400000,  -0.56000,
,,,0.000275500000,  -0.50000,
,,,0.000275600000,  -0.50000,
,,,0.000275700000,  -0.48000,
,,,0.000275800000,  -0.46000,
,,,0.000275900000,  -0.42000,
,,,0.000276000000,  -0.40000,
,,,0.000276100000,  -0.40000,
,,,0.000276200000,  -0.36000,
,,,0.000276300000,  -0.36000,
,,,0.000276400000,  -0.34000,
,,,0.000276500000,  -0.28000,
,,,0.000276600000,  -0.26000,
,,,0.000276700000,  -0.28000,
,,,0.000276800000,  -0.24000,
,,,0.000276900000,  -0.22000,
,,,0.000277000000,  -0.16000,
,,,0.000277100000,  -0.16000,
,,,0.000277200000,  -0.10000,
,,,0.000277300000,  -0.12000,
,,,0.000277400000,  -0.08000,
,,,0.000277500000,  -0.06000,
,,,0.000277600000,  -0.04000,
,,,0.000277700000,  -0.04000,
,,,0.000277800000,   0.02000,
,,,0.000277900000,   0.04000,
,,,0.000278000000,   0.06000,
,,,0.000278100000,   0.04000,
,,,0.000278200000,   0.10000,
,,,0.000278300000,   0.10000,
,,,0.000278400000,   0.12000,
,,,0.000278500000,   0.16000,
,,,0.000278600000,   0.20000,
,,,0.000278700000,   0.22000,
,,,0.000278800000,   0.22000,
,,,0.000278900000,   0.24000,
,,,0.000279000000,   0.26000,
,,,0.000279100000,   0.30000,
,,,0.000279200000,   0.32000,
,,,0.000279300000,   0.34000,
,,,0.000279400000,   0.36000,
,,,0.000279500000,   0.40000,
,,,0.000279600000,   0.40000,
,,,0.000279700000,   0.42000,
,,,0.000279800000,   0.46000,
,,,0.000279900000,   0.48000,
,,,0.000280000000,   0.48000,
,,,0.000280100000,   0.50000,
,,,0.000280200000,   0.54000,
,,,0.000280300000,   0.56000,
,,,0.000280400000,   0.56000,
,,,0.000280500000,   0.58000,
,,,0.000280600000,   0.62000,
,,,0.000280700000,   0.60000,
,,,0.000280800000,   0.66000,
,,,0.000280900000,   0.70000,
,,,0.000281000000,   0.68000,
,,,0.000281100000,   0.70000,
,,,0.000281200000,   0.78000,
,,,0.000281300000,   0.74000,
,,,0.000281400000,   0.74000,
,,,0.000281500000,   0.76000,
,,,0.000281600000,   0.80000,
,,,0.000281700000,   0.80000,
,,,0.000281800000,   0.80000,
,,,0.000281900000,   0.84000,
,,,0.000282000000,   0.84000,
,,,0.000282100000,   0.80000,
,,,0.000282200000,   0.82000,
,,,0.000282300000,   0.84000,
,,,0.000282400000,   0.86000,
,,,0.000282500000,   0.86000,
,,,0.000282600000,   0.90000,
,,,0.000282700000,   0.88000,
,,,0.000282800000,   0.90000,
,,,0.000282900000,   0.90000,
,,,0.000283000000,   0.92000,
,,,0.000283100000,   0.92000,
,,,0.000283200000,   0.92000,
,,,0.000283300000,   0.92000,
,,,0.000283400000,   0.94000,
,,,0.000283500000,   0.94000,
,,,0.000283600000,   0.96000,
,,,0.000283700000,   0.94000,
,,,0.000283800000,   1.00000,
,,,0.000283900000,   0.96000,
,,,0.000284000000,   0.96000,
,,,0.000284100000,   0.96000,
,,,0.000284200000,   0.98000,
,,,0.000284300000,   0.96000,
,,,0.000284400000,   0.94000,
,,,0.000284500000,   0.96000,
,,,0.000284600000,   0.96000,
,,,0.000284700000,   0.96000,
,,,0.000284800000,   0.94000,
,,,0.000284900000,   0.98000,
,,,0.000285000000,   0.92000,
,,,0.000285100000,   0.94000,
,,,0.000285200000,   0.96000,
,,,0.000285300000,   0.96000,
,,,0.000285400000,   0.92000,
,,,0.000285500000,   0.94000,
,,,0.000285600000,   0.90000,
,,,0.000285700000,   0.90000,
,,,0.000285800000,   0.88000,
,,,0.000285900000,   0.90000,
,,,0.000286000000,   0.86000,
,,,0.000286100000,   0.88000,
,,,0.000286200000,   0.86000,
,,,0.000286300000,   0.86000,
,,,0.000286400000,   0.86000,
,,,0.000286500000,   0.82000,
,,,0.000286600000,   0.82000,
,,,0.000286700000,   0.80000,
,,,0.000286800000,   0.76000,
,,,0.000286900000,   0.78000,
,,,0.000287000000,   0.76000,
,,,0.000287100000,   0.72000,
,,,0.000287200000,   0.72000,
,,,0.000287300000,   0.68000,
,,,0.000287400000,   0.70000,
,,,0.000287500000,   0.68000,
,,,0.000287600000,   0.66000,
,,,0.000287700000,   0.68000,
,,,0.000287800000,   0.62000,
,,,0.000287900000,   0.64000,
,,,0.000288000000,   0.58000,
,,,0.000288100000,   0.56000,
,,,0.000288200000,   0.56000,
,,,0.000288300000,   0.54000,
,,,0.000288400000,   0.54000,
,,,0.000288500000,   0.50000,
,,,0.000288600000,   0.48000,
,,,0.000288700000,   0.44000,
,,,0.000288800000,   0.44000,
,,,0.000288900000,   0.42000,
,,,0.000289000000,   0.38000,
,,,0.000289100000,   0.36000,
,,,0.000289200000,   0.36000,
,,,0.000289300000,   0.34000,
,,,0.000289400000,   0.28000,
,,,0.000289500000,   0.30000,
,,,0.000289600000,   0.26000,
,,,0.000289700000,   0.24000,
,,,0.000289800000,   0.22000,
,,,0.000289900000,   0.20000,
,,,0.000290000000,   0.16000,
,,,0.000290100000,   0.16000,
,,,0.000290200000,   0.14000,
,,,0.000290300000,   0.14000,
,,,0.000290400000,   0.08000,
,,,0.000290500000,   0.08000,
,,,0.000290600000,   0.04000,
,,,0.000290700000,   0.00000,
,,,0.000290800000,   0.00000,
,,,0.000290900000,   0.00000,
,,,0.000291000000,  -0.06000,
,,,0.000291100000,  -0.08000,
,,,0.000291200000,  -0.06000,
,,,0.000291300000,  -0.14000,
,,,0.000291400000,  -0.14000,
,,,0.000291500000,  -0.14000,
,,,0.000291600000,  -0.18000,
,,,0.000291700000,  -0.22000,
,,,0.000291800000,  -0.22000,
,,,0.000291900000,  -0.24000,
,,,0.000292000000,  -0.30000,
,,,0.000292100000,  -0.30000,
,,,0.000292200000,  -0.32000,
,,,0.000292300000,  -0.36000,
,,,0.000292400000,  -0.36000,
,,,0.000292500000,  -0.38000,
,,,0.000292600000,  -0.42000,
,,,0.000292700000,  -0.42000,
,,,0.000292800000,  -0.44000,
,,,0.000292900000,  -0.46000,
,,,0.000293000000,  -0.46000,
,,,0.000293100000,  -0.50000,
,,,0.000293200000,  -0.50000,
,,,0.000293300000,  -0.54000,
,,,0.000293400000,  -0.56000,
,,,0.000293500000,  -0.58000,
,,,0.000293600000,  -0.58000,
,,,0.000293700000,  -0.60000,
,,,0.000293800000,  -0.60000,
,,,0.000293900000,  -0.64000,
,,,0.000294000000,  -0.64000,
,,,0.000294100000,  -0.66000,
,,,0.000294200000,  -0.68000,
,,,0.000294300000,  -0.68000,
,,,0.000294400000,  -0.70000,
,,,0.000294500000,  -0.72000,
,,,0.000294600000,  -0.74000,
,,,0.000294700000,  -0.76000,
,,,0.000294800000,  -0.74000,
,,,0.000294900000,  -0.78000,
,,,0.000295000000,  -0.78000,
,,,0.000295100000,  -0.78000,
,,,0.000295200000,  -0.80000,
,,,0.000295300000,  -0.82000,
,,,0.000295400000,  -0.84000,
,,,0.000295500000,  -0.84000,
,,,0.000295600000,  -0.84000,
,,,0.000295700000,  -0.84000,
,,,0.000295800000,  -0.86000,
,,,0.000295900000,  -0.86000,
,,,0.000296000000,  -0.90000,
,,,0.000296100000,  -0.88000,
,,,0.000296200000,  -0.88000,
,,,0.000296300000,  -0.90000,
,,,0.000296400000,  -0.94000,
,,,0.000296500000,  -0.90000,
,,,0.000296600000,  -0.94000,
,,,0.000296700000,  -0.92000,
,,,0.000296800000,  -0.90000,
,,,0.000296900000,  -0.90000,
,,,0.000297000000,  -0.90000,
,,,0.000297100000,  -0.92000,
,,,0.000297200000,  -0.90000,
,,,0.000297300000,  -0.92000,
,,,0.000297400000,  -0.90000,
,,,0.000297500000,  -0.92000,
,,,0.000297600000,  -0.88000,
,,,0.000297700000,  -0.90000,
,,,0.000297800000,  -0.92000,
,,,0.000297900000,  -0.92000,
,,,0.000298000000,  -0.90000,
,,,0.000298100000,  -0.88000,
,,,0.000298200000,  -0.86000,
,,,0.000298300000,  -0.86000,
,,,0.000298400000,  -0.86000,
,,,0.000298500000,  -0.82000,
,,,0.000298600000,  -0.86000,
,,,0.000298700000,  -0.84000,
,,,0.000298800000,  -0.84000,
,,,0.000298900000,  -0.82000,
,,,0.000299000000,  -0.84000,
,,,0.000299100000,  -0.80000,
,,,0.000299200000,  -0.78000,
,,,0.000299300000,  -0.78000,
,,,0.000299400000,  -0.78000,
,,,0.000299500000,  -0.74000,
,,,0.000299600000,  -0.74000,
,,,0.000299700000,  -0.76000,
,,,0.000299800000,  -0.74000,
,,,0.000299900000,  -0.70000,
,,,0.000300000000,  -0.72000,
,,,0.000300100000,  -0.70000,
,,,0.000300200000,  -0.68000,
,,,0.000300300000,  -0.64000,
,,,0.000300400000,  -0.66000,
,,,0.000300500000,  -0.62000,
,,,0.000300600000,  -0.60000,
,,,0.000300700000,  -0.60000,
,,,0.000300800000,  -0.58000,
,,,0.000300900000,  -0.56000,
,,,0.000301000000,  -0.56000,
,,,0.000301100000,  -0.52000,
,,,0.000301200000,  -0.48000,
,,,0.000301300000,  -0.48000,
,,,0.000301400000,  -0.48000,
,,,0.000301500000,  -0.46000,
,,,0.000301600000,  -0.42000,
,,,0.000301700000,  -0.44000,
,,,0.000301800000,  -0.36000,
,,,0.000301900000,  -0.42000,
,,,0.000302000000,  -0.36000,
,,,0.000302100000,  -0.38000,
,,,0.000302200000,  -0.32000,
,,,0.000302300000,  -0.30000,
,,,0.000302400000,  -0.30000,
,,,0.000302500000,  -0.28000,
,,,0.000302600000,  -0.26000,
,,,0.000302700000,  -0.22000,
,,,0.000302800000,  -0.20000,
,,,0.000302900000,  -0.16000,
,,,0.000303000000,  -0.16000,
,,,0.000303100000,  -0.12000,
,,,0.000303200000,  -0.10000,
,,,0.000303300000,  -0.10000,
,,,0.000303400000,  -0.08000,
,,,0.000303500000,  -0.06000,
,,,0.000303600000,  -0.02000,
,,,0.000303700000,  -0.02000,
,,,0.000303800000,   0.00000,
,,,0.000303900000,   0.02000,
,,,0.000304000000,   0.06000,
,,,0.000304100000,   0.10000,
,,,0.000304200000,   0.08000,
,,,0.000304300000,   0.12000,
,,,0.000304400000,   0.14000,
,,,0.000304500000,   0.12000,
,,,0.000304600000,   0.16000,
,,,0.000304700000,   0.20000,
,,,0.000304800000,   0.22000,
,,,0.000304900000,   0.24000,
,,,0.000305000000,   0.26000,
,,,0.000305100000,   0.26000,
,,,0.000305200000,   0.30000,
,,,0.000305300000,   0.30000,
,,,0.000305400000,   0.32000,
,,,0.000305500000,   0.36000,
,,,0.000305600000,   0.36000,
,,,0.000305700000,   0.40000,
,,,0.000305800000,   0.42000,
,,,0.000305900000,   0.44000,
,,,0.000306000000,   0.44000,
,,,0.000306100000,   0.46000,
,,,0.000306200000,   0.50000,
,,,0.000306300000,   0.48000,
,,,0.000306400000,   0.52000,
,,,0.000306500000,   0.54000,
,,,0.000306600000,   0.54000,
,,,0.000306700000,   0.56000,
,,,0.000306800000,   0.60000,
,,,0.000306900000,   0.56000,
,,,0.000307000000,   0.60000,
,,,0.000307100000,   0.60000,
,,,0.000307200000,   0.64000,
,,,0.000307300000,   0.64000,
,,,0.000307400000,   0.62000,
,,,0.000307500000,   0.68000,
,,,0.000307600000,   0.68000,
,,,0.000307700000,   0.66000,
,,,0.000307800000,   0.70000,
,,,0.000307900000,   0.70000,
,,,0.000308000000,   0.70000,
,,,0.000308100000,   0.72000,
,,,0.000308200000,   0.74000,
,,,0.000308300000,   0.76000,
,,,0.000308400000,   0.76000,
,,,0.000308500000,   0.74000,
,,,0.000308600000,   0.76000,
,,,0.000308700000,   0.74000,
,,,0.000308800000,   0.78000,
,,,0.000308900000,   0.78000,
,,,0.000309000000,   0.78000,
,,,0.000309100000,   0.80000,
,,,0.000309200000,   0.80000,
,,,0.000309300000,   0.82000,
,,,0.000309400000,   0.78000,
,,,0.000309500000,   0.82000,
,,,0.000309600000,   0.82000,
,,,0.000309700000,   0.80000,
,,,0.000309800000,   0.82000,
,,,0.000309900000,   0.84000,
,,,0.000310000000,   0.80000,
,,,0.000310100000,   0.82000,
,,,0.000310200000,   0.84000,
,,,0.000310300000,   0.80000,
,,,0.000310400000,   0.80000,
,,,0.000310500000,   0.80000,
,,,0.000310600000,   0.82000,
,,,0.000310700000,   0.82000,
,,,0.000310800000,   0.82000,
,,,0.000310900000,   0.82000,
,,,0.000311000000,   0.80000,
,,,0.000311100000,   0.80000,
,,,0.000311200000,   0.80000,
,,,0.000311300000,   0.78000,
,,,0.000311400000,   0.78000,
,,,0.000311500000,   0.78000,
,,,0.000311600000,   0.76000,
,,,0.000311700000,   0.76000,
,,,0.000311800000,   0.72000,
,,,0.000311900000,   0.72000,
,,,0.000312000000,   0.72000,
,,,0.000312100000,   0.72000,
,,,0.000312200000,   0.72000,
,,,0.000312300000,   0.68000,
,,,0.000312400000,   0.68000,
,,,0.000312500000,   0.66000,
,,,0.000312600000,   0.68000,
,,,0.000312700000,   0.64000,
,,,0.000312800000,   0.66000,
,,,0.000312900000,   0.64000,
,,,0.000313000000,   0.62000,
,,,0.000313100000,   0.64000,
,,,0.000313200000,   0.62000,
,,,0.000313300000,   0.56000,
,,,0.000313400000,   0.60000,
,,,0.000313500000,   0.56000,
,,,0.000313600000,   0.54000,
,,,0.000313700000,   0.50000,
,,,0.000313800000,   0.52000,
,,,0.000313900000,   0.50000,
,,,0.000314000000,   0.48000,
,,,0.000314100000,   0.46000,
,,,0.000314200000,   0.48000,
,,,0.000314300000,   0.44000,
,,,0.000314400000,   0.40000,
,,,0.000314500000,   0.38000,
,,,0.000314600000,   0.40000,
,,,0.000314700000,   0.36000,
,,,0.000314800000,   0.34000,
,,,0.000314900000,   0.36000,
,,,0.000315000000,   0.32000,
,,,0.000315100000,   0.32000,
,,,0.000315200000,   0.30000,
,,,0.000315300000,   0.26000,
,,,0.000315400000,   0.26000,
,,,0.000315500000,   0.26000,
,,,0.000315600000,   0.22000,
,,,0.000315700000,   0.16000,
,,,0.000315800000,   0.20000,
,,,0.000315900000,   0.16000,
,,,0.000316000000,   0.14000,
,,,0.000316100000,   0.12000,
,,,0.000316200000,   0.12000,
,,,0.000316300000,   0.10000,
,,,0.000316400000,   0.08000,
,,,0.000316500000,   0.04000,
,,,0.000316600000,   0.04000,
,,,0.000316700000,   0.00000,
,,,0.000316800000,   0.00000,
,,,0.000316900000,  -0.02000,
,,,0.000317000000,  -0.04000,
,,,0.000317100000,  -0.04000,
,,,0.000317200000,  -0.06000,
,,,0.000317300000,  -0.10000,
,,,0.000317400000,  -0.08000,
,,,0.000317500000,  -0.12000,
,,,0.000317600000,  -0.14000,
,,,0.000317700000,  -0.16000,
,,,0.000317800000,  -0.18000,
,,,0.000317900000,  -0.22000,
,,,0.000318000000,  -0.22000,
,,,0.000318100000,  -0.22000,
,,,0.000318200000,  -0.26000,
,,,0.000318300000,  -0.28000,
,,,0.000318400000,  -0.30000,
,,,0.000318500000,  -0.32000,
,,,0.000318600000,  -0.34000,
,,,0.000318700000,  -0.32000,
,,,0.000318800000,  -0.32000,
,,,0.000318900000,  -0.36000,
,,,0.000319000000,  -0.38000,
,,,0.000319100000,  -0.40000,
,,,0.000319200000,  -0.42000,
,,,0.000319300000,  -0.42000,
,,,0.000319400000,  -0.42000,
,,,0.000319500000,  -0.44000,
,,,0.000319600000,  -0.46000,
,,,0.000319700000,  -0.48000,
,,,0.000319800000,  -0.46000,
,,,0.000319900000,  -0.50000,
,,,0.000320000000,  -0.52000,
,,,0.000320100000,  -0.54000,
,,,0.000320200000,  -0.52000,
,,,0.000320300000,  -0.54000,
,,,0.000320400000,  -0.56000,
,,,0.000320500000,  -0.54000,
,,,0.000320600000,  -0.56000,
,,,0.000320700000,  -0.58000,
,,,0.000320800000,  -0.58000,
,,,0.000320900000,  -0.58000,
,,,0.000321000000,  -0.60000,
,,,0.000321100000,  -0.62000,
,,,0.000321200000,  -0.64000,
,,,0.000321300000,  -0.64000,
,,,0.000321400000,  -0.64000,
,,,0.000321500000,  -0.64000,
,,,0.000321600000,  -0.66000,
,,,0.000321700000,  -0.68000,
,,,0.000321800000,  -0.64000,
,,,0.000321900000,  -0.66000,
,,,0.000322000000,  -0.68000,
,,,0.000322100000,  -0.66000,
,,,0.000322200000,  -0.66000,
,,,0.000322300000,  -0.68000,
,,,0.000322400000,  -0.70000,
,,,0.000322500000,  -0.68000,
,,,0.000322600000,  -0.68000,
,,,0.000322700000,  -0.68000,
,,,0.000322800000,  -0.68000,
,,,0.000322900000,  -0.70000,
,,,0.000323000000,  -0.68000,
,,,0.000323100000,  -0.68000,
,,,0.000323200000,  -0.68000,
,,,0.000323300000,  -0.66000,
,,,0.000323400000,  -0.68000,
,,,0.000323500000,  -0.64000,
,,,0.000323600000,  -0.66000,
,,,0.000323700000,  -0.70000,
,,,0.000323800000,  -0.64000,
,,,0.000323900000,  -0.64000,
,,,0.000324000000,  -0.66000,
,,,0.000324100000,  -0.64000,
,,,0.000324200000,  -0.66000,
,,,0.000324300000,  -0.66000,
,,,0.000324400000,  -0.64000,
,,,0.000324500000,  -0.64000,
,,,0.000324600000,  -0.64000,
,,,0.000324700000,  -0.64000,
,,,0.000324800000,  -0.60000,
,,,0.000324900000,  -0.64000,
,,,0.000325000000,  -0.60000,
,,,0.000325100000,  -0.60000,
,,,0.000325200000,  -0.60000,
,,,0.000325300000,  -0.56000,
,,,0.000325400000,  -0.56000,
,,,0.000325500000,  -0.54000,
,,,0.000325600000,  -0.58000,
,,,0.000325700000,  -0.54000,
,,,0.000325800000,  -0.54000,
,,,0.000325900000,  -0.52000,
,,,0.000326000000,  -0.52000,
,,,0.000326100000,  -0.48000,
,,,0.000326200000,  -0.50000,
,,,0.000326300000,  -0.50000,
,,,0.000326400000,  -0.50000,
,,,0.000326500000,  -0.48000,
,,,0.000326600000,  -0.44000,
,,,0.000326700000,  -0.44000,
,,,0.000326800000,  -0.40000,
,,,0.000326900000,  -0.40000,
,,,0.000327000000,  -0.38000,
,,,0.000327100000,  -0.36000,
,,,0.000327200000,  -0.40000,
,,,0.000327300000,  -0.34000,
,,,0.000327400000,  -0.32000,
,,,0.000327500000,  -0.32000,
,,,0.000327600000,  -0.32000,
,,,0.000327700000,  -0.30000,
,,,0.000327800000,  -0.28000,
,,,0.000327900000,  -0.28000,
,,,0.000328000000,  -0.26000,
,,,0.000328100000,  -0.24000,
,,,0.000328200000,  -0.20000,
,,,0.000328300000,  -0.22000,
,,,0.000328400000,  -0.20000,
,,,0.000328500000,  -0.20000,
,,,0.000328600000,  -0.18000,
,,,0.000328700000,  -0.16000,
,,,0.000328800000,  -0.14000,
,,,0.000328900000,  -0.14000,
,,,0.000329000000,  -0.10000,
,,,0.000329100000,  -0.08000,
,,,0.000329200000,  -0.08000,
,,,0.000329300000,  -0.08000,
,,,0.000329400000,  -0.06000,
,,,0.000329500000,  -0.02000,
,,,0.000329600000,  -0.02000,
,,,0.000329700000,   0.00000,
,,,0.000329800000,   0.02000,
,,,0.000329900000,   0.02000,
,,,0.000330000000,   0.02000,
,,,0.000330100000,   0.02000,
,,,0.000330200000,   0.06000,
,,,0.000330300000,   0.08000,
,,,0.000330400000,   0.12000,
,,,0.000330500000,   0.12000,
,,,0.000330600000,   0.12000,
,,,0.000330700000,   0.14000,
,,,0.000330800000,   0.16000,
,,,0.000330900000,   0.18000,
,,,0.000331000000,   0.16000,
,,,0.000331100000,   0.22000,
,,,0.000331200000,   0.20000,
,,,0.000331300000,   0.20000,
,,,0.000331400000,   0.24000,
,,,0.000331500000,   0.26000,
,,,0.000331600000,   0.24000,
,,,0.000331700000,   0.24000,
,,,0.000331800000,   0.28000,
,,,0.000331900000,   0.28000,
,,,0.000332000000,   0.30000,
,,,0.000332100000,   0.32000,
,,,0.000332200000,   0.32000,
,,,0.000332300000,   0.32000,
,,,0.000332400000,   0.36000,
,,,0.000332500000,   0.38000,
,,,0.000332600000,   0.38000,
,,,0.000332700000,   0.36000,
,,,0.000332800000,   0.38000,
,,,0.000332900000,   0.38000,
,,,0.000333000000,   0.40000,
,,,0.000333100000,   0.42000,
,,,0.000333200000,   0.40000,
,,,0.000333300000,   0.42000,
,,,0.000333400000,   0.44000,
,,,0.000333500000,   0.42000,
,,,0.000333600000,   0.46000,
,,,0.000333700000,   0.46000,
,,,0.000333800000,   0.46000,
,,,0.000333900000,   0.46000,
,,,0.000334000000,   0.46000,
,,,0.000334100000,   0.46000,
,,,0.000334200000,   0.46000,
,,,0.000334300000,   0.48000,
,,,0.000334400000,   0.48000,
,,,0.000334500000,   0.48000,
,,,0.000334600000,   0.48000,
,,,0.000334700000,   0.52000,
,,,0.000334800000,   0.52000,
,,,0.000334900000,   0.50000,
,,,0.000335000000,   0.50000,
,,,0.000335100000,   0.48000,
,,,0.000335200000,   0.52000,
,,,0.000335300000,   0.52000,
,,,0.000335400000,   0.52000,
,,,0.000335500000,   0.52000,
,,,0.000335600000,   0.54000,
,,,0.000335700000,   0.52000,
,,,0.000335800000,   0.54000,
,,,0.000335900000,   0.52000,
,,,0.000336000000,   0.50000,
,,,0.000336100000,   0.52000,
,,,0.000336200000,   0.52000,
,,,0.000336300000,   0.52000,
,,,0.000336400000,   0.52000,
,,,0.000336500000,   0.52000,
,,,0.000336600000,   0.52000,
,,,0.000336700000,   0.52000,
,,,0.000336800000,   0.52000,
,,,0.000336900000,   0.52000,
,,,0.000337000000,   0.52000,
,,,0.000337100000,   0.54000,
,,,0.000337200000,   0.50000,
,,,0.000337300000,   0.50000,
,,,0.000337400000,   0.50000,
,,,0.000337500000,   0.48000,
,,,0.000337600000,   0.48000,
,,,0.000337700000,   0.48000,
,,,0.000337800000,   0.50000,
,,,0.000337900000,   0.48000,
,,,0.000338000000,   0.46000,
,,,0.000338100000,   0.48000,
,,,0.000338200000,   0.44000,
,,,0.000338300000,   0.44000,
,,,0.000338400000,   0.44000,
,,,0.000338500000,   0.44000,
,,,0.000338600000,   0.40000,
,,,0.000338700000,   0.42000,
,,,0.000338800000,   0.42000,
,,,0.000338900000,   0.40000,
,,,0.000339000000,   0.42000,
,,,0.000339100000,   0.40000,
,,,0.000339200000,   0.36000,
,,,0.000339300000,   0.36000,
,,,0.000339400000,   0.36000,
,,,0.000339500000,   0.36000,
,,,0.000339600000,   0.34000,
,,,0.000339700000,   0.34000,
,,,0.000339800000,   0.34000,
,,,0.000339900000,   0.30000,
,,,0.000340000000,   0.30000,
,,,0.000340100000,   0.30000,
,,,0.000340200000,   0.28000,
,,,0.000340300000,   0.30000,
,,,0.000340400000,   0.30000,
,,,0.000340500000,   0.26000,
,,,0.000340600000,   0.26000,
,,,0.000340700000,   0.24000,
,,,0.000340800000,   0.22000,
,,,0.000340900000,   0.22000,
,,,0.000341000000,   0.22000,
,,,0.000341100000,   0.20000,
,,,0.000341200000,   0.18000,
,,,0.000341300000,   0.18000,
,,,0.000341400000,   0.16000,
,,,0.000341500000,   0.14000,
,,,0.000341600000,   0.10000,
,,,0.000341700000,   0.08000,
,,,0.000341800000,   0.12000,
,,,0.000341900000,   0.12000,
,,,0.000342000000,   0.10000,
,,,0.000342100000,   0.10000,
,,,0.000342200000,   0.08000,
,,,0.000342300000,   0.06000,
,,,0.000342400000,   0.06000,
,,,0.000342500000,   0.06000,
,,,0.000342600000,   0.04000,
,,,0.000342700000,   0.04000,
,,,0.000342800000,   0.02000,
,,,0.000342900000,   0.02000,
,,,0.000343000000,  -0.02000,
,,,0.000343100000,   0.00000,
,,,0.000343200000,  -0.02000,
,,,0.000343300000,  -0.04000,
,,,0.000343400000,  -0.04000,
,,,0.000343500000,  -0.06000,
,,,0.000343600000,  -0.06000,
,,,0.000343700000,  -0.08000,
,,,0.000343800000,  -0.06000,
,,,0.000343900000,  -0.10000,
,,,0.000344000000,  -0.10000,
,,,0.000344100000,  -0.12000,
,,,0.000344200000,  -0.16000,
,,,0.000344300000,  -0.12000,
,,,0.000344400000,  -0.14000,
,,,0.000344500000,  -0.18000,
,,,0.000344600000,  -0.14000,
,,,0.000344700000,  -0.18000,
,,,0.000344800000,  -0.16000,
,,,0.000344900000,  -0.18000,
,,,0.000345000000,  -0.20000,
,,,0.000345100000,  -0.20000,
,,,0.000345200000,  -0.22000,
,,,0.000345300000,  -0.22000,
,,,0.000345400000,  -0.20000,
,,,0.000345500000,  -0.22000,
,,,0.000345600000,  -0.24000,
,,,0.000345700000,  -0.24000,
,,,0.000345800000,  -0.24000,
,,,0.000345900000,  -0.26000,
,,,0.000346000000,  -0.24000,
,,,0.000346100000,  -0.26000,
,,,0.000346200000,  -0.28000,
,,,0.000346300000,  -0.26000,
,,,0.000346400000,  -0.26000,
,,,0.000346500000,  -0.26000,
,,,0.000346600000,  -0.32000,
,,,0.000346700000,  -0.30000,
,,,0.000346800000,  -0.30000,
,,,0.000346900000,  -0.30000,
,,,0.000347000000,  -0.32000,
,,,0.000347100000,  -0.30000,
,,,0.000347200000,  -0.32000,
,,,0.000347300000,  -0.32000,
,,,0.000347400000,  -0.36000,
,,,0.000347500000,  -0.30000,
,,,0.000347600000,  -0.36000,
,,,0.000347700000,  -0.32000,
,,,0.000347800000,  -0.32000,
,,,0.000347900000,  -0.34000,
,,,0.000348000000,  -0.34000,
,,,0.000348100000,  -0.32000,
,,,0.000348200000,  -0.36000,
,,,0.000348300000,  -0.36000,
,,,0.000348400000,  -0.34000,
,,,0.000348500000,  -0.34000,
,,,0.000348600000,  -0.36000,
,,,0.000348700000,  -0.34000,
,,,0.000348800000,  -0.34000,
,,,0.000348900000,  -0.36000,
,,,0.000349000000,  -0.34000,
,,,0.000349100000,  -0.32000,
,,,0.000349200000,  -0.36000,
,,,0.000349300000,  -0.34000,
,,,0.000349400000,  -0.34000,
,,,0.000349500000,  -0.36000,
,,,0.000349600000,  -0.34000,
,,,0.000349700000,  -0.34000,
,,,0.000349800000,  -0.32000,
,,,0.000349900000,  -0.34000,
,,,0.000350000000,  -0.34000,
,,,0.000350100000,  -0.32000,
,,,0.000350200000,  -0.34000,
,,,0.000350300000,  -0.32000,
,,,0.000350400000,  -0.32000,
,,,0.000350500000,  -0.32000,
,,,0.000350600000,  -0.32000,
,,,0.000350700000,  -0.30000,
,,,0.000350800000,  -0.30000,
,,,0.000350900000,  -0.32000,
,,,0.000351000000,  -0.28000,
,,,0.000351100000,  -0.28000,
,,,0.000351200000,  -0.30000,
,,,0.000351300000,  -0.32000,
,,,0.000351400000,  -0.28000,
,,,0.000351500000,  -0.26000,
,,,0.000351600000,  -0.28000,
,,,0.000351700000,  -0.28000,
,,,0.000351800000,  -0.28000,
,,,0.000351900000,  -0.26000,
,,,0.000352000000,  -0.26000,
,,,0.000352100000,  -0.26000,
,,,0.000352200000,  -0.24000,
,,,0.000352300000,  -0.26000,
,,,0.000352400000,  -0.24000,
,,,0.000352500000,  -0.22000,
,,,0.000352600000,  -0.22000,
,,,0.000352700000,  -0.22000,
,,,0.000352800000,  -0.18000,
,,,0.000352900000,  -0.18000,
,,,0.000353000000,  -0.16000,
,,,0.000353100000,  -0.20000,
,,,0.000353200000,  -0.20000,
,,,0.000353300000,  -0.22000,
,,,0.000353400000,  -0.16000,
,,,0.000353500000,  -0.14000,
,,,0.000353600000,  -0.16000,
,,,0.000353700000,  -0.16000,
,,,0.000353800000,  -0.16000,
,,,0.000353900000,  -0.16000,
,,,0.000354000000,  -0.16000,
,,,0.000354100000,  -0.14000,
,,,0.000354200000,  -0.14000,
,,,0.000354300000,  -0.12000,
,,,0.000354400000,  -0.12000,
,,,0.000354500000,  -0.10000,
,,,0.000354600000,  -0.10000,
,,,0.000354700000,  -0.10000,
,,,0.000354800000,  -0.08000,
,,,0.000354900000,  -0.12000,
,,,0.000355000000,  -0.08000,
,,,0.000355100000,  -0.04000,
,,,0.000355200000,  -0.06000,
,,,0.000355300000,  -0.06000,
,,,0.000355400000,  -0.04000,
,,,0.000355500000,  -0.04000,
,,,0.000355600000,  -0.04000,
,,,0.000355700000,  -0.04000,
,,,0.000355800000,  -0.02000,
,,,0.000355900000,  -0.04000,
,,,0.000356000000,  -0.02000,
,,,0.000356100000,   0.00000,
,,,0.000356200000,   0.02000,
,,,0.000356300000,  -0.02000,
,,,0.000356400000,   0.02000,
,,,0.000356500000,   0.00000,
,,,0.000356600000,   0.02000,
,,,0.000356700000,   0.04000,
,,,0.000356800000,   0.02000,
,,,0.000356900000,   0.02000,
,,,0.000357000000,   0.04000,
,,,0.000357100000,   0.02000,
,,,0.000357200000,   0.04000,
,,,0.000357300000,   0.02000,
,,,0.000357400000,   0.06000,
,,,0.000357500000,   0.06000,
,,,0.000357600000,   0.06000,
,,,0.000357700000,   0.06000,
,,,0.000357800000,   0.08000,
,,,0.000357900000,   0.08000,
,,,0.000358000000,   0.06000,
,,,0.000358100000,   0.10000,
,,,0.000358200000,   0.08000,
,,,0.000358300000,   0.10000,
,,,0.000358400000,   0.10000,
,,,0.000358500000,   0.12000,
,,,0.000358600000,   0.10000,
,,,0.000358700000,   0.10000,
,,,0.000358800000,   0.14000,
,,,0.000358900000,   0.12000,
,,,0.000359000000,   0.12000,
,,,0.000359100000,   0.12000,
,,,0.000359200000,   0.12000,
,,,0.000359300000,   0.12000,
,,,0.000359400000,   0.16000,
,,,0.000359500000,   0.14000,
,,,0.000359600000,   0.12000,
,,,0.000359700000,   0.16000,
,,,0.000359800000,   0.14000,
,,,0.000359900000,   0.12000,
,,,0.000360000000,   0.16000,
,,,0.000360100000,   0.18000,
,,,0.000360200000,   0.18000,
,,,0.000360300000,   0.14000,
,,,0.000360400000,   0.18000,
,,,0.000360500000,   0.16000,
,,,0.000360600000,   0.14000,
,,,0.000360700000,   0.18000,
,,,0.000360800000,   0.16000,
,,,0.000360900000,   0.18000,
,,,0.000361000000,   0.16000,
,,,0.000361100000,   0.18000,
,,,0.000361200000,   0.16000,
,,,0.000361300000,   0.14000,
,,,0.000361400000,   0.16000,
,,,0.000361500000,   0.14000,
,,,0.000361600000,   0.16000,
,,,0.000361700000,   0.14000,
,,,0.000361800000,   0.18000,
,,,0.000361900000,   0.16000,
,,,0.000362000000,   0.14000,
,,,0.000362100000,   0.18000,
,,,0.000362200000,   0.16000,
,,,0.000362300000,   0.20000,
,,,0.000362400000,   0.18000,
,,,0.000362500000,   0.14000,
,,,0.000362600000,   0.18000,
,,,0.000362700000,   0.16000,
,,,0.000362800000,   0.16000,
,,,0.000362900000,   0.16000,
,,,0.000363000000,   0.14000,
,,,0.000363100000,   0.16000,
,,,0.000363200000,   0.16000,
,,,0.000363300000,   0.18000,
,,,0.000363400000,   0.18000,
,,,0.000363500000,   0.14000,
,,,0.000363600000,   0.14000,
,,,0.000363700000,   0.14000,
,,,0.000363800000,   0.14000,
,,,0.000363900000,   0.12000,
,,,0.000364000000,   0.14000,
,,,0.000364100000,   0.12000,
,,,0.000364200000,   0.14000,
,,,0.000364300000,   0.14000,
,,,0.000364400000,   0.14000,
,,,0.000364500000,   0.12000,
,,,0.000364600000,   0.14000,
,,,0.000364700000,   0.14000,
,,,0.000364800000,   0.14000,
,,,0.000364900000,   0.12000,
,,,0.000365000000,   0.12000,
,,,0.000365100000,   0.14000,
,,,0.000365200000,   0.12000,
,,,0.000365300000,   0.10000,
,,,0.000365400000,   0.12000,
,,,0.000365500000,   0.14000,
,,,0.000365600000,   0.12000,
,,,0.000365700000,   0.14000,
,,,0.000365800000,   0.14000,
,,,0.000365900000,   0.10000,
,,,0.000366000000,   0.10000,
,,,0.000366100000,   0.10000,
,,,0.000366200000,   0.10000,
,,,0.000366300000,   0.10000,
,,,0.000366400000,   0.12000,
,,,0.000366500000,   0.08000,
,,,0.000366600000,   0.10000,
,,,0.000366700000,   0.12000,
,,,0.000366800000,   0.12000,
,,,0.000366900000,   0.10000,
,,,0.000367000000,   0.08000,
,,,0.000367100000,   0.12000,
,,,0.000367200000,   0.08000,
,,,0.000367300000,   0.08000,
,,,0.000367400000,   0.08000,
,,,0.000367500000,   0.08000,
,,,0.000367600000,   0.12000,
,,,0.000367700000,   0.10000,
,,,0.000367800000,   0.08000,
,,,0.000367900000,   0.04000,
,,,0.000368000000,   0.08000,
,,,0.000368100000,   0.06000,
,,,0.000368200000,   0.06000,
,,,0.000368300000,   0.08000,
,,,0.000368400000,   0.08000,
,,,0.000368500000,   0.08000,
,,,0.000368600000,   0.06000,
,,,0.000368700000,   0.06000,
,,,0.000368800000,   0.10000,
,,,0.000368900000,   0.06000,
,,,0.000369000000,   0.06000,
,,,0.000369100000,   0.06000,
,,,0.000369200000,   0.04000,
,,,0.000369300000,   0.06000,
,,,0.000369400000,   0.06000,
,,,0.000369500000,   0.08000,
,,,0.000369600000,   0.08000,
,,,0.000369700000,   0.04000,
,,,0.000369800000,   0.06000,
,,,0.000369900000,   0.04000,
,,,0.000370000000,   0.08000,
,,,0.000370100000,   0.08000,
,,,0.000370200000,   0.06000,
,,,0.000370300000,   0.06000,
,,,0.000370400000,   0.08000,
,,,0.000370500000,   0.04000,
,,,0.000370600000,   0.04000,
,,,0.000370700000,   0.04000,
,,,0.000370800000,   0.06000,
,,,0.000370900000,   0.04000,
,,,0.000371000000,   0.06000,
,,,0.000371100000,   0.04000,
,,,0.000371200000,   0.04000,
,,,0.000371300000,   0.04000,
,,,0.000371400000,   0.04000,
,,,0.000371500000,   0.02000,
,,,0.000371600000,   0.04000,
,,,0.000371700000,   0.04000,
,,,0.000371800000,   0.02000,
,,,0.000371900000,   0.02000,
,,,0.000372000000,   0.06000,
,,,0.000372100000,   0.06000,
,,,0.000372200000,   0.02000,
,,,0.000372300000,   0.02000,
,,,0.000372400000,   0.04000,
,,,0.000372500000,   0.04000,
,,,0.000372600000,   0.04000,
,,,0.000372700000,   0.04000,
,,,0.000372800000,   0.04000,
,,,0.000372900000,   0.02000,
,,,0.000373000000,   0.04000,
,,,0.000373100000,   0.04000,
,,,0.000373200000,   0.04000,
,,,0.000373300000,   0.04000,
,,,0.000373400000,   0.06000,
,,,0.000373500000,   0.06000,
,,,0.000373600000,   0.02000,
,,,0.000373700000,   0.06000,
,,,0.000373800000,   0.04000,
,,,0.000373900000,   0.04000,
,,,0.000374000000,   0.04000,
,,,0.000374100000,   0.02000,
,,,0.000374200000,   0.04000,
,,,0.000374300000,   0.02000,
,,,0.000374400000,   0.08000,
,,,0.000374500000,   0.02000,
,,,0.000374600000,   0.02000,
,,,0.000374700000,   0.04000,
,,,0.000374800000,   0.04000,
,,,0.000374900000,   0.06000,
,,,0.000375000000,   0.06000,
,,,0.000375100000,   0.06000,
,,,0.000375200000,   0.06000,
,,,0.000375300000,   0.04000,
,,,0.000375400000,   0.06000,
,,,0.000375500000,   0.06000,
,,,0.000375600000,   0.02000,
,,,0.000375700000,   0.02000,
,,,0.000375800000,   0.02000,
,,,0.000375900000,   0.02000,
,,,0.000376000000,   0.06000,
,,,0.000376100000,   0.04000,
,,,0.000376200000,   0.04000,
,,,0.000376300000,   0.04000,
,,,0.000376400000,   0.02000,
,,,0.000376500000,   0.04000,
,,,0.000376600000,   0.02000,
,,,0.000376700000,   0.04000,
,,,0.000376800000,   0.04000,
,,,0.000376900000,   0.04000,
,,,0.000377000000,   0.02000,
,,,0.000377100000,   0.02000,
,,,0.000377200000,   0.02000,
,,,0.000377300000,   0.02000,
,,,0.000377400000,   0.04000,
,,,0.000377500000,   0.02000,
,,,0.000377600000,   0.02000,
,,,0.000377700000,   0.02000,
,,,0.000377800000,   0.00000,
,,,0.000377900000,   0.02000,
,,,0.000378000000,   0.00000,
,,,0.000378100000,   0.02000,
,,,0.000378200000,  -0.02000,
,,,0.000378300000,  -0.02000,
,,,0.000378400000,  -0.02000,
,,,0.000378500000,  -0.02000,
,,,0.000378600000,   0.00000,
,,,0.000378700000,  -0.02000,
,,,0.000378800000,   0.00000,
,,,0.000378900000,  -0.02000,
,,,0.000379000000,  -0.02000,
,,,0.000379100000,   0.00000,
,,,0.000379200000,   0.00000,
,,,0.000379300000,  -0.02000,
,,,0.000379400000,  -0.02000,
,,,0.000379500000,  -0.02000,
,,,0.000379600000,  -0.02000,
,,,0.000379700000,  -0.02000,
,,,0.000379800000,  -0.04000,
,,,0.000379900000,  -0.04000,
,,,0.000380000000,  -0.06000,
,,,0.000380100000,  -0.04000,
,,,0.000380200000,  -0.04000,
,,,0.000380300000,  -0.04000,
,,,0.000380400000,  -0.04000,
,,,0.000380500000,  -0.04000,
,,,0.000380600000,  -0.08000,
,,,0.000380700000,  -0.02000,
,,,0.000380800000,  -0.04000,
,,,0.000380900000,  -0.08000,
,,,0.000381000000,  -0.06000,
,,,0.000381100000,  -0.08000,
,,,0.000381200000,  -0.10000,
,,,0.000381300000,  -0.08000,
,,,0.000381400000,  -0.06000,
,,,0.000381500000,  -0.08000,
,,,0.000381600000,  -0.08000,
,,,0.000381700000,  -0.12000,
,,,0.000381800000,  -0.14000,
,,,0.000381900000,  -0.10000,
,,,0.000382000000,  -0.10000,
,,,0.000382100000,  -0.10000,
,,,0.000382200000,  -0.10000,
,,,0.000382300000,  -0.10000,
,,,0.000382400000,  -0.08000,
,,,0.000382500000,  -0.10000,
,,,0.000382600000,  -0.12000,
,,,0.000382700000,  -0.10000,
,,,0.000382800000,  -0.12000,
,,,0.000382900000,  -0.16000,
,,,0.000383000000,  -0.10000,
,,,0.000383100000,  -0.10000,
,,,0.000383200000,  -0.12000,
,,,0.000383300000,  -0.14000,
,,,0.000383400000,  -0.14000,
,,,0.000383500000,  -0.14000,
,,,0.000383600000,  -0.14000,
,,,0.000383700000,  -0.12000,
,,,0.000383800000,  -0.16000,
,,,0.000383900000,  -0.16000,
,,,0.000384000000,  -0.16000,
,,,0.000384100000,  -0.16000,
,,,0.000384200000,  -0.14000,
,,,0.000384300000,  -0.16000,
,,,0.000384400000,  -0.16000,
,,,0.000384500000,  -0.18000,
,,,0.000384600000,  -0.18000,
,,,0.000384700000,  -0.18000,
,,,0.000384800000,  -0.18000,
,,,0.000384900000,  -0.20000,
,,,0.000385000000,  -0.18000,
,,,0.000385100000,  -0.18000,
,,,0.000385200000,  -0.18000,
,,,0.000385300000,  -0.18000,
,,,0.000385400000,  -0.16000,
,,,0.000385500000,  -0.20000,
,,,0.000385600000,  -0.18000,
,,,0.000385700000,  -0.20000,
,,,0.000385800000,  -0.20000,
,,,0.000385900000,  -0.22000,
,,,0.000386000000,  -0.20000,
,,,0.000386100000,  -0.20000,
,,,0.000386200000,  -0.22000,
,,,0.000386300000,  -0.20000,
,,,0.000386400000,  -0.20000,
,,,0.000386500000,  -0.22000,
,,,0.000386600000,  -0.20000,
,,,0.000386700000,  -0.18000,
,,,0.000386800000,  -0.20000,
,,,0.000386900000,  -0.22000,
,,,0.000387000000,  -0.20000,
,,,0.000387100000,  -0.20000,
,,,0.000387200000,  -0.22000,
,,,0.000387300000,  -0.20000,
,,,0.000387400000,  -0.20000,
,,,0.000387500000,  -0.20000,
,,,0.000387600000,  -0.18000,
,,,0.000387700000,  -0.18000,
,,,0.000387800000,  -0.20000,
,,,0.000387900000,  -0.20000,
,,,0.000388000000,  -0.20000,
,,,0.000388100000,  -0.20000,
,,,0.000388200000,  -0.20000,
,,,0.000388300000,  -0.20000,
,,,0.000388400000,  -0.18000,
,,,0.000388500000,  -0.20000,
,,,0.000388600000,  -0.18000,
,,,0.000388700000,  -0.18000,
,,,0.000388800000,  -0.20000,
,,,0.000388900000,  -0.20000,
,,,0.000389000000,  -0.18000,
,,,0.000389100000,  -0.18000,
,,,0.000389200000,  -0.18000,
,,,0.000389300000,  -0.18000,
,,,0.000389400000,  -0.16000,
,,,0.000389500000,  -0.18000,
,,,0.000389600000,  -0.16000,
,,,0.000389700000,  -0.16000,
,,,0.000389800000,  -0.16000,
,,,0.000389900000,  -0.16000,
,,,0.000390000000,  -0.12000,
,,,0.000390100000,  -0.14000,
,,,0.000390200000,  -0.16000,
,,,0.000390300000,  -0.14000,
,,,0.000390400000,  -0.14000,
,,,0.000390500000,  -0.14000,
,,,0.000390600000,  -0.12000,
,,,0.000390700000,  -0.12000,
,,,0.000390800000,  -0.12000,
,,,0.000390900000,  -0.12000,
,,,0.000391000000,  -0.12000,
,,,0.000391100000,  -0.10000,
,,,0.000391200000,  -0.12000,
,,,0.000391300000,  -0.10000,
,,,0.000391400000,  -0.08000,
,,,0.000391500000,  -0.10000,
,,,0.000391600000,  -0.08000,
,,,0.000391700000,  -0.10000,
,,,0.000391800000,  -0.06000,
,,,0.000391900000,  -0.06000,
,,,0.000392000000,  -0.06000,
,,,0.000392100000,  -0.02000,
,,,0.000392200000,  -0.06000,
,,,0.000392300000,  -0.04000,
,,,0.000392400000,  -0.02000,
,,,0.000392500000,  -0.02000,
,,,0.000392600000,   0.00000,
,,,0.000392700000,   0.02000,
,,,0.000392800000,   0.00000,
,,,0.000392900000,   0.00000,
,,,0.000393000000,   0.02000,
,,,0.000393100000,   0.04000,
,,,0.000393200000,   0.04000,
,,,0.000393300000,   0.02000,
,,,0.000393400000,   0.06000,
,,,0.000393500000,   0.04000,
,,,0.000393600000,   0.06000,
,,,0.000393700000,   0.06000,
,,,0.000393800000,   0.08000,
,,,0.000393900000,   0.06000,
,,,0.000394000000,   0.10000,
,,,0.000394100000,   0.10000,
,,,0.000394200000,   0.10000,
,,,0.000394300000,   0.12000,
,,,0.000394400000,   0.12000,
,,,0.000394500000,   0.08000,
,,,0.000394600000,   0.10000,
,,,0.000394700000,   0.12000,
,,,0.000394800000,   0.14000,
,,,0.000394900000,   0.12000,
,,,0.000395000000,   0.18000,
,,,0.000395100000,   0.18000,
,,,0.000395200000,   0.16000,
,,,0.000395300000,   0.18000,
,,,0.000395400000,   0.20000,
,,,0.000395500000,   0.18000,
,,,0.000395600000,   0.20000,
,,,0.000395700000,   0.20000,
,,,0.000395800000,   0.20000,
,,,0.000395900000,   0.22000,
,,,0.000396000000,   0.20000,
,,,0.000396100000,   0.20000,
,,,0.000396200000,   0.24000,
,,,0.000396300000,   0.22000,
,,,0.000396400000,   0.24000,
,,,0.000396500000,   0.26000,
,,,0.000396600000,   0.26000,
,,,0.000396700000,   0.26000,
,,,0.000396800000,   0.28000,
,,,0.000396900000,   0.26000,
,,,0.000397000000,   0.28000,
,,,0.000397100000,   0.26000,
,,,0.000397200000,   0.28000,
,,,0.000397300000,   0.32000,
,,,0.000397400000,   0.32000,
,,,0.000397500000,   0.30000,
,,,0.000397600000,   0.30000,
,,,0.000397700000,   0.32000,
,,,0.000397800000,   0.30000,
,,,0.000397900000,   0.32000,
,,,0.000398000000,   0.34000,
,,,0.000398100000,   0.36000,
,,,0.000398200000,   0.34000,
,,,0.000398300000,   0.36000,
,,,0.000398400000,   0.34000,
,,,0.000398500000,   0.36000,
,,,0.000398600000,   0.38000,
,,,0.000398700000,   0.36000,
,,,0.000398800000,   0.38000,
,,,0.000398900000,   0.38000,
,,,0.000399000000,   0.38000,
,,,0.000399100000,   0.36000,
,,,0.000399200000,   0.38000,
,,,0.000399300000,   0.38000,
,,,0.000399400000,   0.38000,
,,,0.000399500000,   0.36000,
,,,0.000399600000,   0.36000,
,,,0.000399700000,   0.38000,
,,,0.000399800000,   0.38000,
,,,0.000399900000,   0.36000,
,,,0.000400000000,   0.42000,
,,,0.000400100000,   0.40000,
,,,0.000400200000,   0.36000,
,,,0.000400300000,   0.38000,
,,,0.000400400000,   0.40000,
,,,0.000400500000,   0.38000,
,,,0.000400600000,   0.38000,
,,,0.000400700000,   0.38000,
,,,0.000400800000,   0.38000,
,,,0.000400900000,   0.36000,
,,,0.000401000000,   0.38000,
,,,0.000401100000,   0.36000,
,,,0.000401200000,   0.36000,
,,,0.000401300000,   0.38000,
,,,0.000401400000,   0.38000,
,,,0.000401500000,   0.36000,
,,,0.000401600000,   0.34000,
,,,0.000401700000,   0.36000,
,,,0.000401800000,   0.36000,
,,,0.000401900000,   0.36000,
,,,0.000402000000,   0.36000,
,,,0.000402100000,   0.36000,
,,,0.000402200000,   0.32000,
,,,0.000402300000,   0.34000,
,,,0.000402400000,   0.32000,
,,,0.000402500000,   0.32000,
,,,0.000402600000,   0.32000,
,,,0.000402700000,   0.32000,
,,,0.000402800000,   0.30000,
,,,0.000402900000,   0.28000,
,,,0.000403000000,   0.30000,
,,,0.000403100000,   0.30000,
,,,0.000403200000,   0.28000,
,,,0.000403300000,   0.30000,
,,,0.000403400000,   0.30000,
,,,0.000403500000,   0.26000,
,,,0.000403600000,   0.24000,
,,,0.000403700000,   0.26000,
,,,0.000403800000,   0.24000,
,,,0.000403900000,   0.22000,
,,,0.000404000000,   0.24000,
,,,0.000404100000,   0.22000,
,,,0.000404200000,   0.18000,
,,,0.000404300000,   0.20000,
,,,0.000404400000,   0.18000,
,,,0.000404500000,   0.18000,
,,,0.000404600000,   0.16000,
,,,0.000404700000,   0.14000,
,,,0.000404800000,   0.14000,
,,,0.000404900000,   0.14000,
,,,0.000405000000,   0.12000,
,,,0.000405100000,   0.12000,
,,,0.000405200000,   0.12000,
,,,0.000405300000,   0.10000,
,,,0.000405400000,   0.12000,
,,,0.000405500000,   0.08000,
,,,0.000405600000,   0.06000,
,,,0.000405700000,   0.06000,
,,,0.000405800000,   0.04000,
,,,0.000405900000,   0.02000,
,,,0.000406000000,   0.04000,
,,,0.000406100000,   0.00000,
,,,0.000406200000,   0.00000,
,,,0.000406300000,   0.00000,
,,,0.000406400000,  -0.02000,
,,,0.000406500000,  -0.02000,
,,,0.000406600000,  -0.02000,
,,,0.000406700000,  -0.02000,
,,,0.000406800000,  -0.06000,
,,,0.000406900000,  -0.08000,
,,,0.000407000000,  -0.04000,
,,,0.000407100000,  -0.10000,
,,,0.000407200000,  -0.10000,
,,,0.000407300000,  -0.10000,
,,,0.000407400000,  -0.12000,
,,,0.000407500000,  -0.14000,
,,,0.000407600000,  -0.14000,
,,,0.000407700000,  -0.16000,
,,,0.000407800000,  -0.18000,
,,,0.000407900000,  -0.18000,
,,,0.000408000000,  -0.16000,
,,,0.000408100000,  -0.20000,
,,,0.000408200000,  -0.20000,
,,,0.000408300000,  -0.26000,
,,,0.000408400000,  -0.22000,
,,,0.000408500000,  -0.26000,
,,,0.000408600000,  -0.26000,
,,,0.000408700000,  -0.24000,
,,,0.000408800000,  -0.26000,
,,,0.000408900000,  -0.30000,
,,,0.000409000000,  -0.30000,
,,,0.000409100000,  -0.30000,
,,,0.000409200000,  -0.30000,
,,,0.000409300000,  -0.30000,
,,,0.000409400000,  -0.30000,
,,,0.000409500000,  -0.34000,
,,,0.000409600000,  -0.34000,
,,,0.000409700000,  -0.34000,
,,,0.000409800000,  -0.36000,
,,,0.000409900000,  -0.38000,
,,,0.000410000000,  -0.36000,
,,,0.000410100000,  -0.40000,
,,,0.000410200000,  -0.36000,
,,,0.000410300000,  -0.40000,
,,,0.000410400000,  -0.40000,
,,,0.000410500000,  -0.42000,
,,,0.000410600000,  -0.42000,
,,,0.000410700000,  -0.42000,
,,,0.000410800000,  -0.44000,
,,,0.000410900000,  -0.46000,
,,,0.000411000000,  -0.44000,
,,,0.000411100000,  -0.46000,
,,,0.000411200000,  -0.46000,
,,,0.000411300000,  -0.46000,
,,,0.000411400000,  -0.50000,
,,,0.000411500000,  -0.48000,
,,,0.000411600000,  -0.48000,
,,,0.000411700000,  -0.46000,
,,,0.000411800000,  -0.48000,
,,,0.000411900000,  -0.50000,
,,,0.000412000000,  -0.48000,
,,,0.000412100000,  -0.50000,
,,,0.000412200000,  -0.52000,
,,,0.000412300000,  -0.50000,
,,,0.000412400000,  -0.48000,
,,,0.000412500000,  -0.50000,
,,,0.000412600000,  -0.52000,
,,,0.000412700000,  -0.50000,
,,,0.000412800000,  -0.48000,
,,,0.000412900000,  -0.52000,
,,,0.000413000000,  -0.50000,
,,,0.000413100000,  -0.52000,
,,,0.000413200000,  -0.52000,
,,,0.000413300000,  -0.52000,
,,,0.000413400000,  -0.50000,
,,,0.000413500000,  -0.54000,
,,,0.000413600000,  -0.52000,
,,,0.000413700000,  -0.50000,
,,,0.000413800000,  -0.52000,
,,,0.000413900000,  -0.52000,
,,,0.000414000000,  -0.50000,
,,,0.000414100000,  -0.48000,
,,,0.000414200000,  -0.52000,
,,,0.000414300000,  -0.52000,
,,,0.000414400000,  -0.50000,
,,,0.000414500000,  -0.50000,
,,,0.000414600000,  -0.46000,
,,,0.000414700000,  -0.46000,
,,,0.000414800000,  -0.48000,
,,,0.000414900000,  -0.46000,
,,,0.000415000000,  -0.46000,
,,,0.000415100000,  -0.46000,
,,,0.000415200000,  -0.44000,
,,,0.000415300000,  -0.44000,
,,,0.000415400000,  -0.44000,
,,,0.000415500000,  -0.46000,
,,,0.000415600000,  -0.40000,
,,,0.000415700000,  -0.40000,
,,,0.000415800000,  -0.38000,
,,,0.000415900000,  -0.38000,
,,,0.000416000000,  -0.36000,
,,,0.000416100000,  -0.36000,
,,,0.000416200000,  -0.36000,
,,,0.000416300000,  -0.36000,
,,,0.000416400000,  -0.32000,
,,,0.000416500000,  -0.34000,
,,,0.000416600000,  -0.32000,
,,,0.000416700000,  -0.32000,
,,,0.000416800000,  -0.32000,
,,,0.000416900000,  -0.32000,
,,,0.000417000000,  -0.28000,
,,,0.000417100000,  -0.24000,
,,,0.000417200000,  -0.28000,
,,,0.000417300000,  -0.24000,
,,,0.000417400000,  -0.24000,
,,,0.000417500000,  -0.22000,
,,,0.000417600000,  -0.22000,
,,,0.000417700000,  -0.20000,
,,,0.000417800000,  -0.20000,
,,,0.000417900000,  -0.18000,
