\relax 
\catcode `"\active 
\select@language{ngerman}
\@writefile{toc}{\select@language{ngerman}}
\@writefile{lof}{\select@language{ngerman}}
\@writefile{lot}{\select@language{ngerman}}
\@writefile{toc}{\contentsline {section}{\numberline {1}Einleitung}{2}}
\newlabel{sec:einleitung}{{1}{2}}
\@writefile{toc}{\contentsline {subsection}{\numberline {1.1}Ableitungen aus dem Energiesatz}{2}}
\newlabel{subsec:energiesatz}{{1.1}{2}}
\newlabel{nu_theo}{{2}{2}}
\@writefile{toc}{\contentsline {section}{\numberline {2}Aufbau der W"armepumpe}{3}}
\newlabel{sec:aufbau}{{2}{3}}
\@writefile{toc}{\contentsline {section}{\numberline {3}Durchf"uhrung}{4}}
\newlabel{sec:durchfuehrung}{{3}{4}}
\newlabel{nu_real}{{3}{4}}
\newlabel{masse_theo}{{4}{4}}
\newlabel{arbeitarbeit}{{5}{4}}
\@writefile{toc}{\contentsline {section}{\numberline {4}Auswertung}{5}}
\@writefile{toc}{\contentsline {subsection}{\numberline {4.1}Fehlerrechnung}{5}}
\newlabel{sub:fehlerrechnung}{{4.1}{5}}
\@writefile{toc}{\contentsline {subsection}{\numberline {4.2}Approximierung der Temperaturkurven}{5}}
\newlabel{sub:approximieren_der_temperaturkurven}{{4.2}{5}}
\providecommand*\caption@xref[2]{\@setref\relax\@undefined{#1}}
\newlabel{daten}{{1}{5}}
\newlabel{T11}{{12}{6}}
\newlabel{ergebnisse}{{2}{6}}
\@writefile{toc}{\contentsline {subsection}{\numberline {4.3}G"uteziffer}{6}}
\newlabel{sub:g_uteziffer}{{4.3}{6}}
\newlabel{guete}{{3}{6}}
\citation{anleitung}
\newlabel{masse}{{4}{7}}
\@writefile{toc}{\contentsline {subsection}{\numberline {4.4}Massendurchsatz}{7}}
\newlabel{sub:massendurchsatz}{{4.4}{7}}
\@writefile{toc}{\contentsline {subsection}{\numberline {4.5}Mechanische Arbeit des Kompressors}{7}}
\newlabel{sub:mechanische_arbeit}{{4.5}{7}}
\newlabel{arbeit1}{{5}{7}}
\newlabel{arbeit2}{{6}{8}}
\bibcite{anleitung}{1}
\@writefile{toc}{\contentsline {section}{\numberline {5}Diskussion}{9}}
\newlabel{sec:diskussion}{{5}{9}}
