[0] Config.pm:318> INFO - This is Biber 1.8
[0] Config.pm:321> INFO - Logfile is 'build/main.blg'
[55] biber:275> INFO - === Tue Nov 25, 2014, 16:10:33
[55] Biber.pm:333> INFO - Reading 'build/main.bcf'
[102] Biber.pm:630> INFO - Found 0 citekeys in bib section 0
[102] Utils.pm:169> WARN - The file 'build/main.bcf' does not contain any citations!
[115] bbl.pm:482> INFO - Writing 'build/main.bbl' with encoding 'UTF-8'
[116] bbl.pm:555> INFO - Output to build/main.bbl
[116] Biber.pm:105> INFO - WARNINGS: 1
