\relax 
\providecommand\hyper@newdestlabel[2]{}
\providecommand\BKM@entry[2]{}
\catcode `"\active 
\abx@aux@sortscheme{nty}
\providecommand\HyperFirstAtBeginDocument{\AtBeginDocument}
\HyperFirstAtBeginDocument{\ifx\hyper@anchor\@undefined
\global\let\oldcontentsline\contentsline
\gdef\contentsline#1#2#3#4{\oldcontentsline{#1}{#2}{#3}}
\global\let\oldnewlabel\newlabel
\gdef\newlabel#1#2{\newlabelxx{#1}#2}
\gdef\newlabelxx#1#2#3#4#5#6{\oldnewlabel{#1}{{#2}{#3}}}
\AtEndDocument{\ifx\hyper@anchor\@undefined
\let\contentsline\oldcontentsline
\let\newlabel\oldnewlabel
\fi}
\fi}
\global\let\hyper@last\relax 
\gdef\HyperFirstAtBeginDocument#1{#1}
\providecommand\HyField@AuxAddToFields[1]{}
\providecommand\HyField@AuxAddToCoFields[2]{}
\@writefile{toc}{\boolfalse {citerequest}\boolfalse {citetracker}\boolfalse {pagetracker}\boolfalse {backtracker}\relax }
\@writefile{lof}{\boolfalse {citerequest}\boolfalse {citetracker}\boolfalse {pagetracker}\boolfalse {backtracker}\relax }
\@writefile{lot}{\boolfalse {citerequest}\boolfalse {citetracker}\boolfalse {pagetracker}\boolfalse {backtracker}\relax }
\select@language {german}
\@writefile{toc}{\defcounter {refsection}{0}\relax }\@writefile{toc}{\select@language {german}}
\@writefile{lof}{\defcounter {refsection}{0}\relax }\@writefile{lof}{\select@language {german}}
\@writefile{lot}{\defcounter {refsection}{0}\relax }\@writefile{lot}{\select@language {german}}
\BKM@entry{id=1,dest={73656374696F6E2E31},srcline={1},srcfile={2E2F6D61696E2E746578}}{5C3337365C3337375C303030545C303030685C303030655C3030306F5C303030725C303030695C30303065}
\BKM@entry{id=2,dest={73756273656374696F6E2E312E31},srcline={4},srcfile={2E2F6D61696E2E746578}}{5C3337365C3337375C303030545C303030725C303030615C3030306E5C303030735C303030705C3030306F5C303030725C303030745C3030305C3034305C303030765C3030306F5C3030306E5C3030305C3034305C303030575C3030305C3334345C303030725C3030306D5C30303065}
\BKM@entry{id=3,dest={73756273656374696F6E2E312E32},srcline={45},srcfile={2E2F6D61696E2E746578}}{5C3337365C3337375C303030415C303030755C303030665C303030625C303030615C303030755C3030305C3034305C303030645C303030655C303030725C3030305C3034305C303030575C3030305C3334345C303030725C3030306D5C303030655C303030705C303030755C3030306D5C303030705C30303065}
\BKM@entry{id=4,dest={73756273656374696F6E2E312E33},srcline={61},srcfile={2E2F6D61696E2E746578}}{5C3337365C3337375C303030425C303030655C303030735C303030745C303030695C3030306D5C3030306D5C303030755C3030306E5C303030675C3030305C3034305C303030645C303030655C303030725C3030305C3034305C3030304B5C303030655C3030306E5C3030306E5C303030675C303030725C3030305C3336365C3030305C3333375C303030655C3030306E}
\@writefile{toc}{\contentsline {section}{\numberline {1}Theorie}{3}{section.1}}
\newlabel{sec:Theorie}{{1}{3}{Theorie}{section.1}{}}
\@writefile{toc}{\contentsline {subsection}{\numberline {1.1}Transport von Wärme}{3}{subsection.1.1}}
\newlabel{equ:eins}{{1}{3}{Transport von Wärme}{equation.1.1}{}}
\newlabel{equ:zwei}{{2}{3}{Transport von Wärme}{equation.1.2}{}}
\newlabel{equ:drei}{{3}{3}{Transport von Wärme}{equation.1.3}{}}
\newlabel{equ:vier}{{4}{3}{Transport von Wärme}{equation.1.4}{}}
\newlabel{equ:fuenf}{{5}{3}{Transport von Wärme}{equation.1.5}{}}
\@writefile{toc}{\contentsline {subsection}{\numberline {1.2}Aufbau der Wärmepumpe}{3}{subsection.1.2}}
\@writefile{lof}{\contentsline {figure}{\numberline {1}{\ignorespaces Aufbau der Wärmepumpe [1]\relax }}{4}{figure.caption.2}}
\providecommand*\caption@xref[2]{\@setref\relax\@undefined{#1}}
\newlabel{fig:Abb1}{{1}{4}{Aufbau der Wärmepumpe [1]\relax }{figure.caption.2}{}}
\@writefile{toc}{\contentsline {subsection}{\numberline {1.3}Bestimmung der Kenngrößen}{4}{subsection.1.3}}
\newlabel{equ:sechs}{{6}{4}{Bestimmung der Kenngrößen}{equation.1.6}{}}
\newlabel{equ:real}{{7}{4}{Bestimmung der Kenngrößen}{equation.1.7}{}}
\newlabel{equ:Q2}{{8}{4}{Bestimmung der Kenngrößen}{equation.1.8}{}}
\BKM@entry{id=5,dest={73656374696F6E2E32},srcline={1},srcfile={2E2F6D61696E2E746578}}{5C3337365C3337375C303030445C303030755C303030725C303030635C303030685C303030665C3030305C3337345C303030685C303030725C303030755C3030306E5C30303067}
\BKM@entry{id=6,dest={73656374696F6E2E33},srcline={1},srcfile={2E2F6D61696E2E746578}}{5C3337365C3337375C303030415C303030755C303030735C303030775C303030655C303030725C303030745C303030755C3030306E5C30303067}
\BKM@entry{id=7,dest={73756273656374696F6E2E332E31},srcline={4},srcfile={2E2F6D61696E2E746578}}{5C3337365C3337375C303030545C303030655C3030306D5C303030705C303030655C303030725C303030615C303030745C303030755C303030725C303030765C303030655C303030725C3030306C5C303030615C303030755C30303066}
\newlabel{equ:mech}{{9}{5}{Bestimmung der Kenngrößen}{equation.1.9}{}}
\@writefile{toc}{\contentsline {section}{\numberline {2}Durchführung}{5}{section.2}}
\newlabel{sec:Durchführung}{{2}{5}{Durchführung}{section.2}{}}
\@writefile{toc}{\contentsline {section}{\numberline {3}Auswertung}{5}{section.3}}
\newlabel{sec:Auswertung}{{3}{5}{Auswertung}{section.3}{}}
\@writefile{toc}{\contentsline {subsection}{\numberline {3.1}Temperaturverlauf}{5}{subsection.3.1}}
\@writefile{lof}{\contentsline {figure}{\numberline {2}{\ignorespaces Temperaturen der Reservoire in der Zeit.\relax }}{6}{figure.caption.3}}
\newlabel{fig:temperaturverlauf}{{2}{6}{Temperaturen der Reservoire in der Zeit.\relax }{figure.caption.3}{}}
\BKM@entry{id=8,dest={73756273656374696F6E2E332E32},srcline={19},srcfile={2E2F6D61696E2E746578}}{5C3337365C3337375C303030415C303030755C303030735C303030675C3030306C5C303030655C303030695C303030635C303030685C303030735C303030725C303030655C303030635C303030685C3030306E5C303030755C3030306E5C30303067}
\BKM@entry{id=9,dest={73756273656374696F6E2E332E33},srcline={59},srcfile={2E2F6D61696E2E746578}}{5C3337365C3337375C303030475C3030305C3337345C303030745C303030655C3030307A5C303030695C303030665C303030665C303030655C30303072}
\@writefile{lot}{\contentsline {table}{\numberline {1}{\ignorespaces Messwerte des Versuches mit Korrektur von $+ \SI {1}{\bar } .$ Bei 12 Minuten wurde eine Messung ausgelassen.\relax }}{7}{table.caption.4}}
\newlabel{tab:a1}{{1}{7}{Messwerte des Versuches mit Korrektur von $+ \SI {1}{\bar } .$ Bei 12 Minuten wurde eine Messung ausgelassen.\relax }{table.caption.4}{}}
\@writefile{toc}{\contentsline {subsection}{\numberline {3.2}Ausgleichsrechnung}{7}{subsection.3.2}}
\@writefile{lot}{\contentsline {table}{\numberline {2}{\ignorespaces Faktoren der genäherten Polynome.\relax }}{8}{table.caption.5}}
\newlabel{tab:faktoren}{{2}{8}{Faktoren der genäherten Polynome.\relax }{table.caption.5}{}}
\@writefile{lof}{\contentsline {figure}{\numberline {3}{\ignorespaces Angepasste Messwertmenge von $T_1$ und gefittete Polynome. Temperatur in Kelvin. \relax }}{8}{figure.caption.6}}
\newlabel{fig:fit}{{3}{8}{Angepasste Messwertmenge von $T_1$ und gefittete Polynome. Temperatur in Kelvin. \relax }{figure.caption.6}{}}
\BKM@entry{id=10,dest={73756273656374696F6E2E332E34},srcline={102},srcfile={2E2F6D61696E2E746578}}{5C3337365C3337375C3030304D5C303030615C303030735C303030735C303030655C3030306E5C303030645C303030755C303030725C303030635C303030685C303030735C303030615C303030745C3030307A}
\@writefile{toc}{\contentsline {subsection}{\numberline {3.3}Güteziffer}{9}{subsection.3.3}}
\@writefile{lot}{\contentsline {table}{\numberline {3}{\ignorespaces Werte zur Bestimmung der Güteziffer.\relax }}{9}{table.caption.7}}
\newlabel{tab:Gueteziffer}{{3}{9}{Werte zur Bestimmung der Güteziffer.\relax }{table.caption.7}{}}
\newlabel{eqn:Gueteziffer_real}{{10}{9}{Güteziffer}{equation.3.10}{}}
\newlabel{eqn:Ngemittelt}{{11}{9}{Güteziffer}{equation.3.11}{}}
\newlabel{eqn:guetteziffer_ideal}{{12}{9}{Güteziffer}{equation.3.12}{}}
\@writefile{toc}{\contentsline {subsection}{\numberline {3.4}Massendurchsatz}{9}{subsection.3.4}}
\newlabel{eqn:massendurchsatz}{{13}{9}{Massendurchsatz}{equation.3.13}{}}
\@writefile{lof}{\contentsline {figure}{\numberline {4}{\ignorespaces Plot zur Bestimmung der Ausgleichsgeraden und Verdampfungswärme. \relax }}{10}{figure.caption.8}}
\newlabel{fig:linfit}{{4}{10}{Plot zur Bestimmung der Ausgleichsgeraden und Verdampfungswärme. \relax }{figure.caption.8}{}}
\@writefile{lot}{\contentsline {table}{\numberline {4}{\ignorespaces Werte zur Bestimmung des Massendurchsatzes.\relax }}{10}{table.caption.9}}
\newlabel{tab:Massendurchsatz}{{4}{10}{Werte zur Bestimmung des Massendurchsatzes.\relax }{table.caption.9}{}}
\BKM@entry{id=11,dest={73756273656374696F6E2E332E35},srcline={157},srcfile={2E2F6D61696E2E746578}}{5C3337365C3337375C3030304D5C303030655C303030635C303030685C303030615C3030306E5C303030695C303030735C303030635C303030685C303030655C3030305C3034305C303030415C303030725C303030625C303030655C303030695C303030745C3030305C3034305C303030645C303030655C303030735C3030305C3034305C3030304B5C3030306F5C3030306D5C303030705C303030725C303030655C303030735C303030735C3030306F5C303030725C30303073}
\BKM@entry{id=12,dest={73656374696F6E2E34},srcline={1},srcfile={2E2F6D61696E2E746578}}{5C3337365C3337375C303030445C303030695C303030735C3030306B5C303030755C303030735C303030735C303030695C3030306F5C3030306E}
\@writefile{toc}{\contentsline {subsection}{\numberline {3.5}Mechanische Arbeit des Kompressors}{11}{subsection.3.5}}
\@writefile{lot}{\contentsline {table}{\numberline {5}{\ignorespaces Konstanten zur Bestimmung der Kompressorleistung.\relax }}{11}{table.caption.10}}
\newlabel{tab:Kompressorleistung}{{5}{11}{Konstanten zur Bestimmung der Kompressorleistung.\relax }{table.caption.10}{}}
\newlabel{eqn:Kompressorleistung}{{14}{11}{Mechanische Arbeit des Kompressors}{equation.3.14}{}}
\@writefile{lot}{\contentsline {table}{\numberline {6}{\ignorespaces Ergebnisse aus \textup  {\hbox {\mathsurround \z@ \normalfont  (\ignorespaces \ref  {eqn:Kompressorleistung}\unskip \@@italiccorr )}} zur Kompressorleistung.\relax }}{11}{table.caption.11}}
\newlabel{tab:KompressorleistungErgebnisse}{{6}{11}{Ergebnisse aus \eqref {eqn:Kompressorleistung} zur Kompressorleistung.\relax }{table.caption.11}{}}
\@writefile{toc}{\contentsline {section}{\numberline {4}Diskussion}{11}{section.4}}
\BKM@entry{id=13,dest={73656374696F6E2A2E3132},srcline={1},srcfile={2E2F6D61696E2E746578}}{5C3337365C3337375C3030304C5C303030695C303030745C303030655C303030725C303030615C303030745C303030755C30303072}
\bibcite{anleitung}{1}
\bibcite{c_w}{2}
\newlabel{sec:Diskussion}{{4}{12}{Diskussion}{section.4}{}}
\@writefile{toc}{\contentsline {section}{\nonumberline Literatur}{12}{section*.12}}
