[0] Config.pm:318> INFO - This is Biber 1.8
[0] Config.pm:321> INFO - Logfile is 'build/main.blg'
[50] biber:275> INFO - === Thu Feb  5, 2015, 13:55:02
[50] Biber.pm:333> INFO - Reading 'build/main.bcf'
[99] Biber.pm:630> INFO - Found 0 citekeys in bib section 0
[99] Utils.pm:169> WARN - The file 'build/main.bcf' does not contain any citations!
[111] bbl.pm:482> INFO - Writing 'build/main.bbl' with encoding 'UTF-8'
[112] bbl.pm:555> INFO - Output to build/main.bbl
[112] Biber.pm:105> INFO - WARNINGS: 1
