\boolfalse {citerequest}\boolfalse {citetracker}\boolfalse {pagetracker}\boolfalse {backtracker}\relax 
\defcounter {refsection}{0}\relax 
\select@language {german}
\contentsline {section}{\numberline {1}Theorie und Durchführung}{3}{section.1}
\contentsline {section}{\numberline {2}Auswertung}{5}{section.2}
\contentsline {subsection}{\numberline {2.1}Fehler und Nullmessung}{5}{subsection.2.1}
\contentsline {subsection}{\numberline {2.2}Indium}{6}{subsection.2.2}
\contentsline {subsection}{\numberline {2.3}Indium 116}{6}{subsection.2.3}
\contentsline {subsection}{\numberline {2.4}Silber}{6}{subsection.2.4}
\contentsline {section}{\numberline {3}Diskussion}{9}{section.3}
\contentsline {section}{\nonumberline Literatur}{9}{section*.9}
