\relax 
\providecommand\hyper@newdestlabel[2]{}
\providecommand\BKM@entry[2]{}
\catcode `"\active 
\abx@aux@sortscheme{nty}
\providecommand\HyperFirstAtBeginDocument{\AtBeginDocument}
\HyperFirstAtBeginDocument{\ifx\hyper@anchor\@undefined
\global\let\oldcontentsline\contentsline
\gdef\contentsline#1#2#3#4{\oldcontentsline{#1}{#2}{#3}}
\global\let\oldnewlabel\newlabel
\gdef\newlabel#1#2{\newlabelxx{#1}#2}
\gdef\newlabelxx#1#2#3#4#5#6{\oldnewlabel{#1}{{#2}{#3}}}
\AtEndDocument{\ifx\hyper@anchor\@undefined
\let\contentsline\oldcontentsline
\let\newlabel\oldnewlabel
\fi}
\fi}
\global\let\hyper@last\relax 
\gdef\HyperFirstAtBeginDocument#1{#1}
\providecommand\HyField@AuxAddToFields[1]{}
\providecommand\HyField@AuxAddToCoFields[2]{}
\@writefile{toc}{\boolfalse {citerequest}\boolfalse {citetracker}\boolfalse {pagetracker}\boolfalse {backtracker}\relax }
\@writefile{lof}{\boolfalse {citerequest}\boolfalse {citetracker}\boolfalse {pagetracker}\boolfalse {backtracker}\relax }
\@writefile{lot}{\boolfalse {citerequest}\boolfalse {citetracker}\boolfalse {pagetracker}\boolfalse {backtracker}\relax }
\select@language {german}
\@writefile{toc}{\defcounter {refsection}{0}\relax }\@writefile{toc}{\select@language {german}}
\@writefile{lof}{\defcounter {refsection}{0}\relax }\@writefile{lof}{\select@language {german}}
\@writefile{lot}{\defcounter {refsection}{0}\relax }\@writefile{lot}{\select@language {german}}
\BKM@entry{id=1,dest={73656374696F6E2E31},srcline={1},srcfile={2E2F6D61696E2E746578}}{5C3337365C3337375C303030545C303030685C303030655C3030306F5C303030725C303030695C303030655C3030305C3034305C303030755C3030306E5C303030645C3030305C3034305C303030445C303030755C303030725C303030635C303030685C303030665C3030305C3337345C303030685C303030725C303030755C3030306E5C30303067}
\abx@aux@cite{Anleitung}
\@writefile{toc}{\contentsline {section}{\numberline {1}Theorie und Durchführung}{3}{section.1}}
\newlabel{sec:Theorie}{{1}{3}{Theorie und Durchführung}{section.1}{}}
\@writefile{lof}{\contentsline {figure}{\numberline {1}{\ignorespaces Querschnittszeichnung der verwendeten Neutronenquelle.\cite {Anleitung}\relax }}{3}{figure.caption.2}}
\providecommand*\caption@xref[2]{\@setref\relax\@undefined{#1}}
\newlabel{quelle}{{1}{3}{Querschnittszeichnung der verwendeten Neutronenquelle.\cite {Anleitung}\relax }{figure.caption.2}{}}
\@writefile{lof}{\contentsline {figure}{\numberline {2}{\ignorespaces Darstellung des Versuchsaufbaus.\cite {Anleitung}\relax }}{4}{figure.caption.3}}
\newlabel{aufbau}{{2}{4}{Darstellung des Versuchsaufbaus.\cite {Anleitung}\relax }{figure.caption.3}{}}
\BKM@entry{id=2,dest={73656374696F6E2E32},srcline={1},srcfile={2E2F6D61696E2E746578}}{5C3337365C3337375C303030415C303030755C303030735C303030775C303030655C303030725C303030745C303030755C3030306E5C30303067}
\abx@aux@cite{scipy}
\abx@aux@cite{uncertainties}
\BKM@entry{id=3,dest={73756273656374696F6E2E322E31},srcline={6},srcfile={2E2F6D61696E2E746578}}{5C3337365C3337375C303030465C303030655C303030685C3030306C5C303030655C303030725C3030305C3034305C303030755C3030306E5C303030645C3030305C3034305C3030304E5C303030755C3030306C5C3030306C5C3030306D5C303030655C303030735C303030735C303030755C3030306E5C30303067}
\BKM@entry{id=4,dest={73756273656374696F6E2E322E32},srcline={21},srcfile={2E2F6D61696E2E746578}}{5C3337365C3337375C303030495C3030306E5C303030645C303030695C303030755C3030306D}
\@writefile{lof}{\contentsline {figure}{\numberline {3}{\ignorespaces Zerfallskurve eines Präparats das aus zwei verschiedenen Isotopen besteht.\cite {Anleitung} \relax }}{5}{figure.caption.4}}
\newlabel{kurve}{{3}{5}{Zerfallskurve eines Präparats das aus zwei verschiedenen Isotopen besteht.\cite {Anleitung} \relax }{figure.caption.4}{}}
\@writefile{toc}{\contentsline {section}{\numberline {2}Auswertung}{5}{section.2}}
\newlabel{sec:Auswertung}{{2}{5}{Auswertung}{section.2}{}}
\@writefile{toc}{\contentsline {subsection}{\numberline {2.1}Fehler und Nullmessung}{5}{subsection.2.1}}
\newlabel{eq:ausw1}{{2}{5}{Fehler und Nullmessung}{equation.2.2}{}}
\BKM@entry{id=5,dest={73756273656374696F6E2E322E33},srcline={24},srcfile={2E2F6D61696E2E746578}}{5C3337365C3337375C303030495C3030306E5C303030645C303030695C303030755C3030306D5C3030305C3034305C303030315C303030315C30303036}
\BKM@entry{id=6,dest={73756273656374696F6E2E322E34},srcline={69},srcfile={2E2F6D61696E2E746578}}{5C3337365C3337375C303030535C303030695C3030306C5C303030625C303030655C30303072}
\@writefile{toc}{\contentsline {subsection}{\numberline {2.2}Indium}{6}{subsection.2.2}}
\@writefile{toc}{\contentsline {subsection}{\numberline {2.3}Indium 116}{6}{subsection.2.3}}
\@writefile{lof}{\contentsline {figure}{\numberline {4}{\ignorespaces Ausgleichsgerade und jeder zweite Messwert mit Fehler für Indium.\relax }}{6}{figure.caption.5}}
\newlabel{plotIn}{{4}{6}{Ausgleichsgerade und jeder zweite Messwert mit Fehler für Indium.\relax }{figure.caption.5}{}}
\@writefile{toc}{\contentsline {subsection}{\numberline {2.4}Silber}{6}{subsection.2.4}}
\@writefile{lot}{\contentsline {table}{\numberline {1}{\ignorespaces Werte für Indium.\relax }}{7}{table.caption.6}}
\newlabel{tab:In}{{1}{7}{Werte für Indium.\relax }{table.caption.6}{}}
\@writefile{lof}{\contentsline {figure}{\numberline {5}{\ignorespaces Ausgleichsgerade und jeder zweite Messwert mit Fehler für Silber.\relax }}{7}{figure.caption.7}}
\newlabel{plotAg}{{5}{7}{Ausgleichsgerade und jeder zweite Messwert mit Fehler für Silber.\relax }{figure.caption.7}{}}
\@writefile{lot}{\contentsline {table}{\numberline {2}{\ignorespaces Messwerte für Silber.\relax }}{8}{table.caption.8}}
\newlabel{tab:Ag}{{2}{8}{Messwerte für Silber.\relax }{table.caption.8}{}}
\BKM@entry{id=7,dest={73656374696F6E2E33},srcline={1},srcfile={2E2F6D61696E2E746578}}{5C3337365C3337375C303030445C303030695C303030735C3030306B5C303030755C303030735C303030735C303030695C3030306F5C3030306E}
\abx@aux@cite{Lit}
\BKM@entry{id=8,dest={73656374696F6E2A2E39},srcline={54},srcfile={2E2F6D61696E2E746578}}{5C3337365C3337375C3030304C5C303030695C303030745C303030655C303030725C303030615C303030745C303030755C30303072}
\@writefile{toc}{\contentsline {section}{\numberline {3}Diskussion}{9}{section.3}}
\newlabel{sec:Diskussion}{{3}{9}{Diskussion}{section.3}{}}
\@writefile{toc}{\contentsline {section}{\nonumberline Literatur}{9}{section*.9}}
