[1] Config.pm:320> INFO - This is Biber 1.9
[1] Config.pm:323> INFO - Logfile is 'build/main.blg'
[109] biber:277> INFO - === Thu Jun 18, 2015, 16:08:49
[109] Biber.pm:333> INFO - Reading 'build/main.bcf'
[339] Biber.pm:635> INFO - Found 2 citekeys in bib section 0
[415] Biber.pm:3051> INFO - Processing section 0
[475] Biber.pm:3189> INFO - Looking for bibtex format file 'lit.bib' for section 0
[490] bibtex.pm:990> INFO - Decoding LaTeX character macros into UTF-8
[491] bibtex.pm:864> INFO - Found BibTeX data source 'lit.bib'
[528] Biber.pm:3189> INFO - Looking for bibtex format file 'programme.bib' for section 0
[531] bibtex.pm:990> INFO - Decoding LaTeX character macros into UTF-8
[536] bibtex.pm:864> INFO - Found BibTeX data source 'programme.bib'
[653] UCollate.pm:66> INFO - Overriding locale 'de-DE' defaults 'normalization = NFD' with 'normalization = prenormalized'
[653] UCollate.pm:66> INFO - Overriding locale 'de-DE' defaults 'variable = shifted' with 'variable = non-ignorable'
[654] Biber.pm:2928> INFO - Sorting list 'nty' of type 'entry' with scheme 'nty' and locale 'de-DE'
[654] Biber.pm:2932> INFO - No sort tailoring available for locale 'de-DE'
[668] bbl.pm:517> INFO - Writing 'build/main.bbl' with encoding 'UTF-8'
[670] bbl.pm:606> INFO - Output to build/main.bbl
