\relax 
\providecommand\hyper@newdestlabel[2]{}
\providecommand\BKM@entry[2]{}
\catcode `"\active 
\abx@aux@sortscheme{nty}
\providecommand\HyperFirstAtBeginDocument{\AtBeginDocument}
\HyperFirstAtBeginDocument{\ifx\hyper@anchor\@undefined
\global\let\oldcontentsline\contentsline
\gdef\contentsline#1#2#3#4{\oldcontentsline{#1}{#2}{#3}}
\global\let\oldnewlabel\newlabel
\gdef\newlabel#1#2{\newlabelxx{#1}#2}
\gdef\newlabelxx#1#2#3#4#5#6{\oldnewlabel{#1}{{#2}{#3}}}
\AtEndDocument{\ifx\hyper@anchor\@undefined
\let\contentsline\oldcontentsline
\let\newlabel\oldnewlabel
\fi}
\fi}
\global\let\hyper@last\relax 
\gdef\HyperFirstAtBeginDocument#1{#1}
\providecommand\HyField@AuxAddToFields[1]{}
\providecommand\HyField@AuxAddToCoFields[2]{}
\@writefile{toc}{\boolfalse {citerequest}\boolfalse {citetracker}\boolfalse {pagetracker}\boolfalse {backtracker}\relax }
\@writefile{lof}{\boolfalse {citerequest}\boolfalse {citetracker}\boolfalse {pagetracker}\boolfalse {backtracker}\relax }
\@writefile{lot}{\boolfalse {citerequest}\boolfalse {citetracker}\boolfalse {pagetracker}\boolfalse {backtracker}\relax }
\select@language {german}
\@writefile{toc}{\defcounter {refsection}{0}\relax }\@writefile{toc}{\select@language {german}}
\@writefile{lof}{\defcounter {refsection}{0}\relax }\@writefile{lof}{\select@language {german}}
\@writefile{lot}{\defcounter {refsection}{0}\relax }\@writefile{lot}{\select@language {german}}
\BKM@entry{id=1,dest={73656374696F6E2E31},srcline={1},srcfile={2E2F6D61696E2E746578}}{5C3337365C3337375C303030545C303030685C303030655C3030306F5C303030725C303030695C30303065}
\BKM@entry{id=2,dest={73756273656374696F6E2E312E31},srcline={6},srcfile={2E2F6D61696E2E746578}}{5C3337365C3337375C3030304E5C303030615C303030745C303030755C303030725C3030305C3034305C303030645C303030655C303030735C3030305C3034305C3030304C5C303030695C303030635C303030685C303030745C30303073}
\BKM@entry{id=3,dest={73756273656374696F6E2E312E32},srcline={9},srcfile={2E2F6D61696E2E746578}}{5C3337365C3337375C303030445C303030655C303030725C3030305C3034305C303030505C303030685C3030306F5C303030745C3030306F5C303030655C303030665C303030665C303030655C3030306B5C30303074}
\abx@aux@cite{anleitung}
\@writefile{toc}{\contentsline {section}{\numberline {1}Theorie}{3}{section.1}}
\newlabel{sec:Theorie}{{1}{3}{Theorie}{section.1}{}}
\@writefile{toc}{\contentsline {subsection}{\numberline {1.1}Natur des Lichts}{3}{subsection.1.1}}
\@writefile{toc}{\contentsline {subsection}{\numberline {1.2}Der Photoeffekt}{3}{subsection.1.2}}
\@writefile{lof}{\contentsline {figure}{\numberline {1}{\ignorespaces Grober Aufbau zur Messung des Photoeffektes.\cite {anleitung}\relax }}{3}{figure.caption.2}}
\providecommand*\caption@xref[2]{\@setref\relax\@undefined{#1}}
\newlabel{theoabb1}{{1}{3}{Grober Aufbau zur Messung des Photoeffektes.\cite {anleitung}\relax }{figure.caption.2}{}}
\BKM@entry{id=4,dest={73756273656374696F6E2E312E33},srcline={40},srcfile={2E2F6D61696E2E746578}}{5C3337365C3337375C303030445C303030695C303030655C3030305C3034305C303030475C303030655C303030675C303030655C3030306E5C303030665C303030655C3030306C5C303030645C3030306D5C303030655C303030745C303030685C3030306F5C303030645C30303065}
\newlabel{theogl1}{{1}{4}{Der Photoeffekt}{equation.1.1}{}}
\@writefile{toc}{\contentsline {subsection}{\numberline {1.3}Die Gegenfeldmethode}{4}{subsection.1.3}}
\newlabel{theogl2}{{3}{4}{Die Gegenfeldmethode}{equation.1.3}{}}
\BKM@entry{id=5,dest={73656374696F6E2E32},srcline={1},srcfile={2E2F6D61696E2E746578}}{5C3337365C3337375C303030445C303030755C303030725C303030635C303030685C303030665C3030305C3337345C303030685C303030725C303030755C3030306E5C30303067}
\BKM@entry{id=6,dest={73756273656374696F6E2E322E31},srcline={35},srcfile={2E2F6D61696E2E746578}}{5C3337365C3337375C3030304D5C303030655C303030735C303030735C303030705C303030725C3030306F5C303030675C303030725C303030615C3030306D5C3030306D}
\@writefile{lof}{\contentsline {figure}{\numberline {2}{\ignorespaces Verhältnis zwischen Bremsspannung und Photostrom.\cite {anleitung}\relax }}{5}{figure.caption.3}}
\newlabel{theoabb2}{{2}{5}{Verhältnis zwischen Bremsspannung und Photostrom.\cite {anleitung}\relax }{figure.caption.3}{}}
\newlabel{theogl3}{{4}{5}{Die Gegenfeldmethode}{equation.1.4}{}}
\@writefile{toc}{\contentsline {section}{\numberline {2}Durchführung}{5}{section.2}}
\newlabel{sec:Durchführung}{{2}{5}{Durchführung}{section.2}{}}
\@writefile{toc}{\contentsline {subsection}{\numberline {2.1}Messprogramm}{5}{subsection.2.1}}
\@writefile{lof}{\contentsline {figure}{\numberline {3}{\ignorespaces Schematische Darstellung einer Photozelle.\cite {anleitung}\relax }}{6}{figure.caption.4}}
\newlabel{durabb1}{{3}{6}{Schematische Darstellung einer Photozelle.\cite {anleitung}\relax }{figure.caption.4}{}}
\@writefile{lof}{\contentsline {figure}{\numberline {4}{\ignorespaces Skizze des Versuchsaufbaus.\cite {anleitung}\relax }}{6}{figure.caption.5}}
\newlabel{durabb2}{{4}{6}{Skizze des Versuchsaufbaus.\cite {anleitung}\relax }{figure.caption.5}{}}
\BKM@entry{id=7,dest={73656374696F6E2E33},srcline={1},srcfile={2E2F6D61696E2E746578}}{5C3337365C3337375C303030415C303030755C303030735C303030775C303030655C303030725C303030745C303030755C3030306E5C30303067}
\abx@aux@cite{scipy}
\abx@aux@cite{uncertainties}
\BKM@entry{id=8,dest={73756273656374696F6E2E332E31},srcline={6},srcfile={2E2F6D61696E2E746578}}{5C3337365C3337375C303030425C303030655C303030735C303030745C303030695C3030306D5C3030306D5C303030755C3030306E5C303030675C3030305C3034305C303030645C303030655C303030725C3030305C3034305C303030475C303030725C303030655C3030306E5C3030307A5C303030735C303030705C303030615C3030306E5C3030306E5C303030755C3030306E5C303030675C303030655C3030306E5C3030305C3034305C3030305C3034305C303030555C303030675C3030305C303430}
\BKM@entry{id=9,dest={73756273656374696F6E2E332E32},srcline={113},srcfile={2E2F6D61696E2E746578}}{5C3337365C3337375C303030425C303030655C303030735C303030745C303030695C3030306D5C3030306D5C303030755C3030306E5C303030675C3030305C3034305C303030765C3030306F5C3030306E5C3030305C3034305C303030655C303030305C3030302F5C303030685C3030305C3034305C303030755C3030306E5C303030645C3030305C3034305C303030415C3030306B}
\@writefile{lof}{\contentsline {figure}{\numberline {5}{\ignorespaces Schaltplan der Messapparatur.\cite {anleitung}\relax }}{7}{figure.caption.6}}
\newlabel{durabb3}{{5}{7}{Schaltplan der Messapparatur.\cite {anleitung}\relax }{figure.caption.6}{}}
\@writefile{toc}{\contentsline {section}{\numberline {3}Auswertung}{7}{section.3}}
\newlabel{sec:Auswertung}{{3}{7}{Auswertung}{section.3}{}}
\@writefile{toc}{\contentsline {subsection}{\numberline {3.1}Bestimmung der Grenzspannungen \( \mathup {U}_\text  {g} \)}{7}{subsection.3.1}}
\@writefile{toc}{\contentsline {subsection}{\numberline {3.2}Bestimmung von \(\mathup {e}_0/\mathup {h}\) und \(\mathup {A}_k\)}{7}{subsection.3.2}}
\@writefile{lot}{\contentsline {table}{\numberline {1}{\ignorespaces Messwerte von Photostrom und Spannung für die verschiedenen Spektrallinien.\relax }}{8}{table.caption.7}}
\newlabel{tab:1}{{1}{8}{Messwerte von Photostrom und Spannung für die verschiedenen Spektrallinien.\relax }{table.caption.7}{}}
\@writefile{lof}{\contentsline {figure}{\numberline {6}{\ignorespaces Wurzel des Photostroms aufgetragen gegen die Bremsspannung für die verschiedenen Spektrallinien zusammen mit den Ausgleichsgeraden.\relax }}{8}{figure.caption.8}}
\newlabel{sqrtI}{{6}{8}{Wurzel des Photostroms aufgetragen gegen die Bremsspannung für die verschiedenen Spektrallinien zusammen mit den Ausgleichsgeraden.\relax }{figure.caption.8}{}}
\@writefile{lot}{\contentsline {table}{\numberline {2}{\ignorespaces Parameter der Ausgleichsrechnungen. Fehler auf $\mathup {U}_\text  {g}$ werden per Fehlerfortpflanzung mit Uncertainties \cite {uncertainties} berechnet.\relax }}{9}{table.caption.9}}
\newlabel{grenz}{{2}{9}{Parameter der Ausgleichsrechnungen. Fehler auf $\mathup {U}_\text {g}$ werden per Fehlerfortpflanzung mit Uncertainties \cite {uncertainties} berechnet.\relax }{table.caption.9}{}}
\@writefile{lof}{\contentsline {figure}{\numberline {7}{\ignorespaces Ausgleichsrechnung der ermittelten Werte der Grenzspannungen \( \mathup {U}_\text  {g}\) gegen die Lichtfrequenz \( \mitnu \).\relax }}{9}{figure.caption.10}}
\newlabel{plotUg}{{7}{9}{Ausgleichsrechnung der ermittelten Werte der Grenzspannungen \( \mathup {U}_\text {g}\) gegen die Lichtfrequenz \( \nu \).\relax }{figure.caption.10}{}}
\BKM@entry{id=10,dest={73756273656374696F6E2E332E33},srcline={142},srcfile={2E2F6D61696E2E746578}}{5C3337365C3337375C303030555C3030306E5C303030745C303030655C303030725C303030735C303030755C303030635C303030685C303030755C3030306E5C303030675C3030305C3034305C303030645C303030655C303030725C3030305C3034305C303030675C303030655C3030306C5C303030625C303030655C3030306E5C3030305C3034305C303030535C303030705C303030655C3030306B5C303030745C303030725C303030615C3030306C5C3030306C5C303030695C3030306E5C303030695C30303065}
\@writefile{toc}{\contentsline {subsection}{\numberline {3.3}Untersuchung der gelben Spektrallinie}{10}{subsection.3.3}}
\@writefile{lot}{\contentsline {table}{\numberline {3}{\ignorespaces Messwerte von \(U\) und \(I\) für die gelbe Spektrallinie.\relax }}{10}{table.caption.11}}
\newlabel{tabgelb}{{3}{10}{Messwerte von \(U\) und \(I\) für die gelbe Spektrallinie.\relax }{table.caption.11}{}}
\@writefile{lof}{\contentsline {figure}{\numberline {8}{\ignorespaces Brems- bzw. Beschleunigungsspannung gegen den Photostrom für gelbes Licht.\relax }}{11}{figure.caption.12}}
\newlabel{Bplot}{{8}{11}{Brems- bzw. Beschleunigungsspannung gegen den Photostrom für gelbes Licht.\relax }{figure.caption.12}{}}
\BKM@entry{id=11,dest={73656374696F6E2E34},srcline={1},srcfile={2E2F6D61696E2E746578}}{5C3337365C3337375C303030445C303030695C303030735C3030306B5C303030755C303030735C303030735C303030695C3030306F5C3030306E}
\BKM@entry{id=12,dest={73656374696F6E2A2E3134},srcline={54},srcfile={2E2F6D61696E2E746578}}{5C3337365C3337375C3030304C5C303030695C303030745C303030655C303030725C303030615C303030745C303030755C30303072}
\@writefile{lof}{\contentsline {figure}{\numberline {9}{\ignorespaces Ein kleinerer Ausschnitt aus Abbildung~\ref  {Bplot}.\relax }}{12}{figure.caption.13}}
\newlabel{Bplotklein}{{9}{12}{Ein kleinerer Ausschnitt aus Abbildung~\ref {Bplot}.\relax }{figure.caption.13}{}}
\@writefile{toc}{\contentsline {section}{\numberline {4}Diskussion}{12}{section.4}}
\newlabel{sec:Diskussion}{{4}{12}{Diskussion}{section.4}{}}
\@writefile{toc}{\contentsline {section}{\nonumberline Literatur}{12}{section*.14}}
