[0] Config.pm:320> INFO - This is Biber 1.9
[1] Config.pm:323> INFO - Logfile is 'build/main.blg'
[71] biber:277> INFO - === Tue May  5, 2015, 11:24:11
[72] Biber.pm:333> INFO - Reading 'build/main.bcf'
[208] Biber.pm:635> INFO - Found 3 citekeys in bib section 0
[257] Biber.pm:3051> INFO - Processing section 0
[294] Biber.pm:3189> INFO - Looking for bibtex format file 'lit.bib' for section 0
[295] bibtex.pm:990> INFO - Decoding LaTeX character macros into UTF-8
[296] bibtex.pm:864> INFO - Found BibTeX data source 'lit.bib'
[316] Biber.pm:3189> INFO - Looking for bibtex format file 'programme.bib' for section 0
[319] bibtex.pm:990> INFO - Decoding LaTeX character macros into UTF-8
[324] bibtex.pm:864> INFO - Found BibTeX data source 'programme.bib'
[405] UCollate.pm:66> INFO - Overriding locale 'de-DE' defaults 'variable = shifted' with 'variable = non-ignorable'
[405] UCollate.pm:66> INFO - Overriding locale 'de-DE' defaults 'normalization = NFD' with 'normalization = prenormalized'
[406] Biber.pm:2928> INFO - Sorting list 'nty' of type 'entry' with scheme 'nty' and locale 'de-DE'
[406] Biber.pm:2932> INFO - No sort tailoring available for locale 'de-DE'
[419] bbl.pm:517> INFO - Writing 'build/main.bbl' with encoding 'UTF-8'
[421] bbl.pm:606> INFO - Output to build/main.bbl
