# Fdb version 3
["latex"] 1427929410 "header.tex" "header.dvi" "header" 1427929434
  "/usr/share/texmf-dist/fonts/map/fontname/texfonts.map" 1407968436 3287 e6b82fe08f5336d4d5ebc73fb1152e87 ""
  "/usr/share/texmf-dist/fonts/tfm/public/cm/cmr10.tfm" 1407968433 1296 45809c5a464d5f32c8f98ba97c1bb47f ""
  "/usr/share/texmf-dist/tex/generic/oberdiek/bigintcalc.sty" 1407968440 40505 7dd1175c474a120bc4d2df75474d51c6 ""
  "/usr/share/texmf-dist/tex/generic/oberdiek/etexcmds.sty" 1407968440 7612 c47308d923ec19888707b0f1792b326a ""
  "/usr/share/texmf-dist/tex/generic/oberdiek/ifluatex.sty" 1407968440 7324 11d14f318d865f420e692d4e6c9c18c3 ""
  "/usr/share/texmf-dist/tex/generic/oberdiek/ifpdf.sty" 1407968440 7140 ece2cc23d9f20e1f53975ac167f42d3e ""
  "/usr/share/texmf-dist/tex/generic/oberdiek/infwarerr.sty" 1407968440 8253 3bdedc8409aa5d290a2339be6f09af03 ""
  "/usr/share/texmf-dist/tex/generic/oberdiek/kvsetkeys.sty" 1407968440 14040 8de9f47fabc4ca3bd69b6d795e32751c ""
  "/usr/share/texmf-dist/tex/generic/oberdiek/ltxcmds.sty" 1407968440 18425 775b341047ce304520cc7c11ca41392e ""
  "/usr/share/texmf-dist/tex/generic/oberdiek/pdftexcmds.sty" 1407968440 19987 01cb2f3c1d21e5f05711b7fd50b17f2a ""
  "/usr/share/texmf-dist/tex/generic/oberdiek/uniquecounter.sty" 1407968440 6875 cbe21228b3939973588050cdb8081c89 ""
  "/usr/share/texmf-dist/tex/generic/xkeyval/xkeyval.tex" 1407968440 19288 82f5295269b2b68c9d1e18112ec34443 ""
  "/usr/share/texmf-dist/tex/generic/xkeyval/xkvutils.tex" 1407968440 7677 6f5ce7c1124cad7ec57d05b2562bd8fe ""
  "/usr/share/texmf-dist/tex/latex/base/fixltx2e.sty" 1407968439 15788 45220b3439648120836809722d6e780c ""
  "/usr/share/texmf-dist/tex/latex/etex-pkg/etex.sty" 1407968439 15274 9f6a2469ac8ebe6168e12b8f32cbe599 ""
  "/usr/share/texmf-dist/tex/latex/etoolbox/etoolbox.sty" 1407969328 41188 02561c41bb08b479074b6e76f0b7d639 ""
  "/usr/share/texmf-dist/tex/latex/fontspec/fontspec.sty" 1407968439 9802 04d9a5a6deea3bcad0aa7dd1c1775b76 ""
  "/usr/share/texmf-dist/tex/latex/graphics/keyval.sty" 1407968439 2317 0ace13e225e9d95dd9defe947adc9fbb ""
  "/usr/share/texmf-dist/tex/latex/koma-script/scrartcl.cls" 1407968439 127355 a7fdf27ceac23f5cd35029e19ee5ae8e ""
  "/usr/share/texmf-dist/tex/latex/koma-script/scrbase.sty" 1407968439 55703 8d34659e3bbcb46e729fb4d093891dde ""
  "/usr/share/texmf-dist/tex/latex/koma-script/scrkbase.sty" 1407968439 12379 3e204271e403e344e17ea6f271e1cb9e ""
  "/usr/share/texmf-dist/tex/latex/koma-script/scrlfile.sty" 1407968439 15847 761a87489e4c6c4c729b168a58a59b20 ""
  "/usr/share/texmf-dist/tex/latex/koma-script/scrsize11pt.clo" 1407968439 6266 ec5a927b5ca7467339876cecc7be43ce ""
  "/usr/share/texmf-dist/tex/latex/koma-script/tocbasic.sty" 1407968439 24027 7b4ce5935b179707cac172da66829e7a ""
  "/usr/share/texmf-dist/tex/latex/koma-script/typearea.sty" 1407968439 41596 d65c9f746399b09ef87b07ec8a6b458e ""
  "/usr/share/texmf-dist/tex/latex/l3kernel/expl3-code.tex" 1407968439 593816 e9833398605e76a9882da93f345c3b3e ""
  "/usr/share/texmf-dist/tex/latex/l3kernel/expl3.sty" 1407968439 9939 80bf3b6e32d1fc178138c35ed4452bb8 ""
  "/usr/share/texmf-dist/tex/latex/l3kernel/l3dvips.def" 1407968439 4180 65978bf73bcdc88ced1234f9f19e8768 ""
  "/usr/share/texmf-dist/tex/latex/l3kernel/l3unicode-data.def" 1407968439 30840 f44980ab7191201e96a0cf3a34d3981b ""
  "/usr/share/texmf-dist/tex/latex/l3packages/xparse/xparse.sty" 1407968439 56508 9fd530818b9026b3f794e4cea0f1ca6b ""
  "/usr/share/texmf-dist/tex/latex/listings/listings.cfg" 1407968439 1828 1429ae58d32ff215bffb2acf697ae41a ""
  "/usr/share/texmf-dist/tex/latex/listings/listings.sty" 1407968439 80361 048fe35275a1096660ea67eecd2213f4 ""
  "/usr/share/texmf-dist/tex/latex/listings/lstmisc.sty" 1407968439 77029 dfe676ac1c76cfa220c8107472a1da27 ""
  "/usr/share/texmf-dist/tex/latex/makecmds/makecmds.sty" 1407969328 2296 b097750ac8010251101d5bbe1da4d1be ""
  "/usr/share/texmf-dist/tex/latex/oberdiek/atveryend.sty" 1407968439 19205 56b519935d9159f78bf6978cfffb796f ""
  "/usr/share/texmf-dist/tex/latex/oberdiek/kvoptions.sty" 1407968439 22417 c74ff4af6a1aa2b65d1924020edbbe11 ""
  "/usr/share/texmf-dist/tex/latex/oberdiek/rerunfilecheck.sty" 1407968439 9581 1158efc648bc09d5064db5703c882159 ""
  "/usr/share/texmf-dist/tex/latex/polyglossia/polyglossia.sty" 1407968439 29710 fc567e3677d28be80884b4f0c7324ac0 ""
  "/usr/share/texmf-dist/tex/latex/xkeyval/xkeyval.sty" 1407968439 4961 d3900e3f4756248d8d0ccedc0016c2eb ""
  "/usr/share/texmf-dist/web2c/texmf.cnf" 1407968443 31669 df537245012f3e5f05bdc55644b7a3df ""
  "/var/lib/texmf/web2c/pdftex/latex.fmt" 1427927268 7194239 e1bfb4e1fc566b72b3a2b273e75e8324 ""
  "header.aux" 1427927484 8 a94a2480d3289e625eea47cd1b285758 ""
  "header.tex" 1427927924 3271 4fced09d64a7542649a36f182c6ad52d ""
  (generated)
  "header.dvi"
  "header.log"
