[0] Config.pm:318> INFO - This is Biber 1.8
[0] Config.pm:321> INFO - Logfile is 'build/main.blg'
[49] biber:275> INFO - === Thu Feb  5, 2015, 12:41:05
[50] Biber.pm:333> INFO - Reading 'build/main.bcf'
[98] Biber.pm:630> INFO - Found 1 citekeys in bib section 0
[111] Biber.pm:3053> INFO - Processing section 0
[140] Biber.pm:3190> INFO - Looking for bibtex format file 'lit.bib' for section 0
[141] bibtex.pm:933> INFO - Decoding LaTeX character macros into UTF-8
[142] bibtex.pm:808> INFO - Found BibTeX data source 'lit.bib'
[142] Biber.pm:3190> INFO - Looking for bibtex format file 'programme.bib' for section 0
[143] bibtex.pm:933> INFO - Decoding LaTeX character macros into UTF-8
[146] bibtex.pm:808> INFO - Found BibTeX data source 'programme.bib'
[216] Biber.pm:2939> INFO - Overriding locale 'en_US.UTF-8' default tailoring 'variable = shifted' with 'variable = non-ignorable'
[216] Biber.pm:2945> INFO - Sorting 'entry' list 'nty' keys
[216] Biber.pm:2949> INFO - No sort tailoring available for locale 'en_US.UTF-8'
[218] bbl.pm:482> INFO - Writing 'build/main.bbl' with encoding 'UTF-8'
[219] bbl.pm:555> INFO - Output to build/main.bbl
