#Strom A magnetfeld mT
0.18 -0.98
0.35 -1.85
0.49 -2.48
0.60 -3.11
0.72 -3.65
0.80 -4.14
1.26 -6.67
1.40 -7.19
1.65 -9.33
1.00 -4.97
2.00 -10.12
3.00 -15.07
4.00 -20.2
5.00 -25.4
6.00 -30.4
7.00 -35.3
8.00 -39.1
9.00 -41.8
10.00 -44.1
