Reflektion 1Mhz Diff in s: [  1.32000000e-05   2.60000000e-05   4.36000000e-05]
Reflektion 2Mhz Diff in s: [  1.40000000e-05   2.69000000e-05   4.40000000e-05]
            1MHz             2MHz
         2356.06060606  &  2221.42857143   \\
         2361.53846154  &  2282.52788104   \\
         2341.74311927  &  2320.45454545   \\
mschlaa:  +2313.96 \pm 48.99
        Zyl             Diff
         1  &  \left(9.2558 \pm 0.1960\right) \times 10^{-4} \\
         2  &  \left(1.04128 \pm 0.02205\right) \times 10^{-3} \\
         3  &  \left(4.62792 \pm 0.09798\right) \times 10^{-4} \\
mittlerer korrigiertel schall: +2237.07 \pm 47.36
       Zyl        korrigierter schall
         1  &  2181.73 \pm 46.19 \\
         2  &  2236.54 \pm 47.35 \\
         3  &  2292.92 \pm 48.54 \\
cDschall:  2114.17 \pm 98.23
length: 0.0809+/-0.0014
+++++++TABELLE++++++++++
#Ug, Us, Ud, Og, Os, Od, Dg, Ds, Dd##
         1 0.0594  &   &  0.0194  &  0.0016  &  \( \left(3.70 \pm 0.14\right) \times 10^{-2} \)  &  \( \left(3.54 \pm 0.14\right) \times 10^{-2} \)   \\
         2 0.0611  &   &  0.0177  &  0.00155  &  \( \left(3.56 \pm 0.14\right) \times 10^{-2} \)  &  \( \left(3.41 \pm 0.14\right) \times 10^{-2} \)   \\
         3 0.0132  &   &  0.0612  &  0.00695  &  \( \left(3.85 \pm 0.14\right) \times 10^{-2} \)  &  \( \left(3.15 \pm 0.14\right) \times 10^{-2} \)   \\
         4 0.0215  &   &  0.0539  &  0.005  &  \( \left(3.81 \pm 0.14\right) \times 10^{-2} \)  &  \( \left(3.31 \pm 0.14\right) \times 10^{-2} \)   \\
         5 0.03  &   &  0.0463  &  0.0041  &  \( \left(3.75 \pm 0.14\right) \times 10^{-2} \)  &  \( \left(3.34 \pm 0.14\right) \times 10^{-2} \)   \\
         6 0.0385  &   &  0.0388  &  0.00305  &  \( \left(3.51 \pm 0.14\right) \times 10^{-2} \)  &  \( \left(3.20 \pm 0.14\right) \times 10^{-2} \)   \\
         7 0.0464  &   &  0.0307  &  0.003  &  \( \left(3.70 \pm 0.14\right) \times 10^{-2} \)  &  \( \left(3.40 \pm 0.14\right) \times 10^{-2} \)   \\
         8 0.0545  &   &  0.0229  &  0.00295  &  \( \left(3.49 \pm 0.14\right) \times 10^{-2} \)  &  \( \left(3.20 \pm 0.14\right) \times 10^{-2} \)   \\
         9 0.0624  &   &  0.0149  &  0.003  &  \( \left(3.68 \pm 0.14\right) \times 10^{-2} \)  &  \( \left(3.38 \pm 0.14\right) \times 10^{-2} \)   \\
         10 0.0715  &   &  0.0109  &  0.00295  &  \( \left(7.72 \pm 0.14\right) \times 10^{-2} \)  &  \( \left(7.43 \pm 0.14\right) \times 10^{-2} \)   \\
         11 0.0556  &   &  0.0153  &  0.01  &  \( \left(4.08 \pm 0.14\right) \times 10^{-2} \)  &  \( \left(3.08 \pm 0.14\right) \times 10^{-2} \)   \\
+++++++++++TABELLE+++++++++
UDiff:  [0.014724999999999995+/-1.2499999999999999e-05
 0.017243999999999995+/-1.28e-05 0.053829+/-2.7e-06
 0.041887999999999995+/-4.4e-06
 0.029237500000000003+/-6.2499999999999995e-06
 0.014912500000000002+/-8.75e-06 0.004082499999999999+/-9.75e-06
 0.010405999999999995+/-1.2199999999999998e-05 0.0209995+/-1.315e-05
 0.010900000000000002+/-0 0.006973500000000002+/-3.0499999999999996e-06]
ODiff:  [0.049572000000000005+/-3.6e-06 0.050726+/-3.7999999999999996e-06
 0.021880499999999997+/-1.2849999999999999e-05
 0.009349000000000003+/-1.13e-05
 0.0036555000000000025+/-9.649999999999999e-06
 0.016523499999999997+/-8.050000000000001e-06
 0.0290645+/-6.349999999999999e-06 0.041805499999999995+/-4.65e-06
 0.05421000000000001+/-3e-06 0.06781450000000001+/-1.35e-06
 0.023795499999999997+/-1.165e-05]
Iris 0.0050055 ,Linse1 0.0071205 ,Linse2 0.0122455 ,Retina 0.037978
