% $ biblatex auxiliary file $
% $ biblatex bbl format version 2.3 $
% Do not modify the above lines!
%
% This is an auxiliary file used by the 'biblatex' package.
% This file may safely be deleted. It will be recreated by
% biber as required.
%
\begingroup
\makeatletter
\@ifundefined{ver@biblatex.sty}
  {\@latex@error
     {Missing 'biblatex' package}
     {The bibliography requires the 'biblatex' package.}
      \aftergroup\endinput}
  {}
\endgroup


\refsection{0}
  \sortlist{entry}{nty}
    \entry{scipy}{misc}{}
      \true{morelabelname}
      \name{labelname}{3}{}{%
        {{hash=4b3d26f886661aa723985bcfd835ba18}{Jones}{J\bibinitperiod}{Eric}{E\bibinitperiod}{}{}{}{}}%
        {{hash=84194a0ad9431322c2f58a085b3991f0}{Oliphant}{O\bibinitperiod}{Travis}{T\bibinitperiod}{}{}{}{}}%
        {{hash=3d6efaaa3d9682e20787eb06ff70a3d7}{Peterson}{P\bibinitperiod}{Pearu}{P\bibinitperiod}{}{}{}{}}%
      }
      \true{moreauthor}
      \name{author}{3}{}{%
        {{hash=4b3d26f886661aa723985bcfd835ba18}{Jones}{J\bibinitperiod}{Eric}{E\bibinitperiod}{}{}{}{}}%
        {{hash=84194a0ad9431322c2f58a085b3991f0}{Oliphant}{O\bibinitperiod}{Travis}{T\bibinitperiod}{}{}{}{}}%
        {{hash=3d6efaaa3d9682e20787eb06ff70a3d7}{Peterson}{P\bibinitperiod}{Pearu}{P\bibinitperiod}{}{}{}{}}%
      }
      \strng{namehash}{6161d5ffac903d9c99af53f45c09a00f}
      \strng{fullhash}{0fc4e01109f422119afc29f3251df541}
      \field{sortinit}{J}
      \field{labeltitle}{{SciPy}: Open source scientific tools for {Python}}
      \field{addendum}{Version 0.14.0}
      \field{title}{{SciPy}: Open source scientific tools for {Python}}
      \field{year}{2001\ndash}
      \verb{url}
      \verb http://www.scipy.org/
      \endverb
    \endentry
  \endsortlist
\endrefsection
\endinput

