#x D (o.G) D(m.G)     G=500.4
48 3.78 7.49
3 0.98 1.01 
45 4.56 6.94
6 1.02 1.12
42 3.35 6.41
9 1.12 1.29
39 3.11 5.86
12 1.16 1.50
36 2.00 5.40
15 1.29 1.81
33 2.82 4.90
18 1.45 2.17
30 2.62 4.42
21 1.63 2.59
27 1.91 3.39
24 1.76 2.98
