\boolfalse {citerequest}\boolfalse {citetracker}\boolfalse {pagetracker}\boolfalse {backtracker}\relax 
\defcounter {refsection}{0}\relax 
\select@language {german}
\contentsline {section}{\numberline {1}Theorie}{3}{section.1}
\contentsline {section}{\numberline {2}Versuchsaufbau und Durchführung}{4}{section.2}
\contentsline {section}{\numberline {3}Auswertung}{4}{section.3}
\contentsline {subsection}{\numberline {3.1}Impuls-Echo-Verfahre und Durchschallungs-Verfahren}{5}{subsection.3.1}
\contentsline {subsection}{\numberline {3.2}Untersuchung des Acrylblocks auf Bohrungen}{5}{subsection.3.2}
\contentsline {subsection}{\numberline {3.3}Untersuchung eines Augenmodells}{5}{subsection.3.3}
\contentsline {section}{\numberline {4}Diskussion}{7}{section.4}
\contentsline {section}{\nonumberline Literatur}{7}{section*.6}
