[0] Config.pm:320> INFO - This is Biber 1.9
[0] Config.pm:323> INFO - Logfile is 'build/main.blg'
[41] biber:277> INFO - === Thu Apr  2, 2015, 00:38:55
[42] Biber.pm:333> INFO - Reading 'build/main.bcf'
[112] Biber.pm:635> INFO - Found 0 citekeys in bib section 0
[113] Utils.pm:144> WARN - The file 'build/main.bcf' does not contain any citations!
[144] bbl.pm:517> INFO - Writing 'build/main.bbl' with encoding 'UTF-8'
[146] bbl.pm:606> INFO - Output to build/main.bbl
[147] Biber.pm:106> INFO - WARNINGS: 1
