m_g = 195g  c_g*m_g= 225.98 [?]     m_ku = 378.06-140.0[g]      m_AL= 254.8-140.5[g]    m_Bl= 521-140.4[g]  

c_g bestimmung:
m_x = 457.13 -195.0
m_y = 721.0-457.13
c_w = 4.18 J/(g*K)
T_x = 87.2 °C
T_y = 28.0
T_m= 54.1


